0.998	1.215	392.00
1.297	1.567	523.25
1.589	1.835	587.33
1.892	2.275	622.25
1.900	2.245	130.81
2.197	2.581	155.56
2.500	2.821	196.00
2.792	3.139	698.46
2.824	3.138	261.63
3.091	3.686	587.33
3.099	3.449	130.81
3.395	3.801	174.61
3.700	4.058	196.00
3.993	4.300	622.25
4.004	4.383	246.94
4.300	5.098	523.25
4.304	4.640	130.81
4.599	4.968	155.56
4.900	5.231	196.00
5.208	5.494	261.63
5.415	5.586	587.33
5.494	5.787	311.13
5.506	5.899	523.25
5.794	6.191	493.88
5.812	6.078	392.00
6.095	6.452	311.13
6.098	6.497	523.25
6.395	6.793	293.66
6.396	6.726	587.33
6.618	6.796	698.46
6.693	7.061	622.25
6.709	7.021	261.63
6.993	7.334	587.33
7.002	7.273	392.00
7.295	7.668	311.13
7.296	7.604	622.25
7.351	7.586	261.63
7.595	7.932	698.46
7.621	7.885	392.00
7.892	8.303	293.66
7.902	8.301	246.94
7.903	8.212	783.99
8.190	8.485	392.00
8.503	8.810	783.99
8.510	8.862	207.65
8.527	8.865	261.63
8.802	9.070	392.00
9.091	9.460	196.00
9.101	9.683	783.99
9.408	9.750	246.94
9.695	10.049	293.66
9.999	10.111	392.00
10.291	10.658	196.00
10.605	10.963	246.94
10.893	11.241	698.46
10.897	11.265	293.66
11.201	11.587	783.99
11.202	11.333	392.00
11.339	11.494	698.46
11.495	12.160	830.61
11.503	11.902	174.61
11.793	12.182	207.65
12.099	12.490	246.94
12.388	12.793	293.66
12.696	13.326	587.33
12.699	13.102	174.61
12.990	13.411	207.65
13.297	13.615	622.25
13.305	13.686	246.94
13.593	13.985	293.66
13.593	13.985	698.46
13.742	13.891	622.25
13.896	14.446	783.99
13.897	14.276	155.56
14.199	14.542	196.00
14.507	14.771	261.63
14.795	15.078	311.13
15.104	15.541	523.25
15.104	15.496	207.65
15.414	15.672	261.63
15.688	16.102	523.25
15.700	16.052	311.13
15.990	16.307	587.33
16.004	16.346	369.99
16.291	16.665	622.25
16.300	16.658	196.00
16.610	16.989	261.63
16.891	17.212	622.25
16.895	17.267	311.13
17.194	17.559	698.46
17.214	17.464	392.00
17.487	17.872	587.33
17.491	17.870	196.00
17.798	18.181	246.94
18.090	18.427	587.33
18.094	18.482	293.66
18.393	18.752	622.25
18.409	18.682	392.00
18.692	19.359	523.25
19.002	19.322	130.81
19.296	19.677	155.56
19.593	19.976	196.00
19.895	20.572	261.63
20.490	20.855	698.46
20.789	21.172	783.99
21.085	22.271	415.30
21.095	21.466	830.61
21.402	21.796	87.31
21.705	22.058	123.47
21.991	22.410	146.83
22.066	22.148	293.66
22.295	22.724	174.61
22.300	22.907	587.33
22.587	22.998	207.65
22.900	23.273	196.00
22.906	23.260	622.25
23.188	23.528	698.46
23.197	23.600	174.61
23.484	24.097	392.00
23.507	23.775	783.99
23.806	24.155	77.78
24.096	24.509	98.00
24.399	24.775	130.81
24.694	25.086	155.56
24.715	25.714	523.25
24.995	25.356	196.00
25.309	25.667	207.65
25.590	25.967	587.33
25.601	25.949	185.00
25.894	26.265	622.25
25.902	26.346	98.00
26.218	26.566	196.00
26.492	26.864	622.25
26.520	26.884	261.63
26.791	27.191	698.46
26.803	27.121	196.00
27.092	27.475	587.33
27.102	27.543	98.00
27.428	27.743	196.00
27.694	28.013	587.33
27.703	28.105	246.94
27.990	28.351	622.25
27.999	28.353	196.00
28.293	28.790	523.25
28.300	28.689	130.81
28.619	28.674	783.99
28.632	28.911	261.63
28.886	28.951	29.14
28.892	29.162	932.33
28.893	29.302	246.94
29.198	29.604	261.63
29.494	29.902	164.81
29.798	30.212	261.63
30.087	30.345	932.33
30.091	30.485	196.00
30.396	30.725	261.63
30.685	31.123	174.61
30.768	30.838	698.46
30.989	31.556	830.61
30.997	31.414	261.63
31.295	31.637	783.99
31.300	31.708	207.65
31.590	32.005	698.46
31.605	32.019	261.63
31.886	32.286	622.25
31.889	32.277	196.00
32.193	32.607	349.23
32.194	32.589	587.33
32.495	32.911	246.94
32.495	32.935	523.25
32.796	33.199	349.23
32.798	33.228	493.88
33.094	33.540	207.65
33.098	34.878	523.25
33.125	33.361	830.61
33.388	33.778	311.13
33.657	33.801	29.14
33.703	33.821	1046.50
33.718	34.104	261.63
33.985	34.303	311.13
34.286	34.717	196.00
34.588	34.907	329.63
34.861	34.969	29.14
34.888	35.184	932.33
34.904	35.333	261.63
34.934	34.982	783.99
35.190	35.489	329.63
35.486	35.950	174.61
35.514	35.766	698.46
35.775	35.868	698.46
35.793	36.251	830.61
35.809	36.214	349.23
36.066	36.163	29.14
36.094	36.526	783.99
36.099	36.531	261.63
36.379	36.816	349.23
36.395	36.740	698.46
36.686	37.091	622.25
36.689	37.137	196.00
36.754	36.955	783.99
36.999	37.376	587.33
37.010	37.280	392.00
37.286	37.709	196.00
37.289	37.740	523.25
37.581	37.629	466.16
37.585	38.039	493.88
37.615	37.961	392.00
37.854	37.981	29.14
37.883	38.559	261.63
37.883	38.583	523.25
38.367	38.460	783.99
38.453	38.644	29.14
38.487	39.200	587.33
38.487	38.867	196.00
38.501	38.921	246.94
38.578	38.801	783.99
38.583	39.000	622.25
38.934	39.192	523.25
39.027	39.232	29.14
39.082	39.505	622.25
39.082	39.542	130.81
39.090	39.517	261.63
39.114	39.229	783.99
39.287	39.349	783.99
39.644	39.898	29.14
39.689	40.114	196.00
39.692	40.155	493.88
39.692	40.143	587.33
39.694	39.772	987.77
39.713	40.166	98.00
40.251	40.565	29.14
40.296	40.696	622.25
40.296	40.720	130.81
40.297	40.748	523.25
40.298	40.454	1046.50
40.298	40.727	65.41
40.332	40.430	196.00
40.439	40.682	466.16
40.443	40.703	196.00
42.653	43.041	29.14
42.690	42.742	164.81
42.697	44.442	196.00
42.697	43.019	783.99
42.701	43.674	116.54
42.704	43.558	329.63
42.717	44.073	261.63
42.749	44.698	58.27
42.777	42.915	659.26
42.934	43.035	659.26
44.479	44.585	196.00
45.054	45.198	29.14
45.093	45.730	103.83
45.104	45.509	349.23
45.136	45.788	51.91
45.382	45.442	466.16
45.403	45.756	523.25
45.706	46.108	415.30
45.991	46.361	698.46
46.294	46.707	523.25
46.591	47.005	830.61
46.890	47.263	698.46
47.194	47.538	1046.50
47.491	47.693	932.33
47.791	48.165	783.99
48.093	48.318	659.26
48.094	48.150	29.14
48.095	50.913	261.63
48.116	48.670	164.81
48.402	48.711	523.25
48.687	49.099	466.16
48.715	49.266	164.81
49.001	49.397	493.88
49.307	49.614	523.25
49.315	49.870	164.81
49.585	49.907	392.00
49.878	49.954	29.14
49.887	51.062	466.16
49.910	51.078	174.61
51.088	51.772	415.30
51.394	51.448	174.61
52.247	52.617	29.14
52.279	54.438	293.66
52.283	52.350	311.13
52.295	52.369	138.59
52.301	52.350	65.41
52.301	54.376	233.08
52.302	53.505	103.83
52.302	52.540	587.33
52.302	54.681	174.61
52.303	52.375	523.25
52.355	53.416	51.91
52.404	52.519	698.46
52.579	52.678	587.33
52.718	52.772	587.33
52.814	52.993	587.33
53.006	53.112	587.33
53.119	53.187	587.33
53.620	53.965	103.83
54.266	54.334	103.83
54.651	54.789	29.14
54.694	55.436	98.00
54.702	54.996	311.13
54.715	54.951	698.46
54.717	54.809	587.33
54.759	55.420	49.00
54.982	55.094	155.56
54.995	55.387	466.16
55.318	55.646	392.00
55.591	55.958	622.25
55.882	56.297	466.16
56.192	56.594	783.99
56.490	56.863	622.25
56.789	56.996	932.33
57.090	57.515	830.61
57.392	57.792	783.99
57.689	59.502	233.08
57.692	58.035	698.46
57.693	57.771	29.14
57.694	59.567	146.83
57.991	58.365	622.25
58.291	58.388	293.66
58.293	58.630	587.33
58.591	59.011	523.25
58.894	58.950	29.14
58.894	59.240	466.16
58.920	58.978	293.66
59.189	59.602	415.30
59.499	59.881	155.56
59.499	59.868	392.00
59.796	60.130	233.08
60.089	60.480	466.16
60.104	60.429	311.13
60.397	60.710	233.08
60.686	61.109	207.65
60.701	61.050	466.16