0.954	1.824	29.14
0.986	1.213	130.81
0.994	1.748	196.00
0.996	2.672	65.41
1.024	1.087	92.50
1.039	1.571	466.16
1.281	1.343	220.00
1.288	1.431	261.63
1.306	1.435	587.33
1.327	1.456	130.81
1.335	1.413	1567.98
1.447	1.556	523.25
1.467	1.871	587.33
1.470	2.045	261.63
1.571	2.931	130.81
1.578	1.642	311.13
1.585	1.850	329.63
1.587	1.769	783.99
1.633	1.841	466.16
1.885	2.148	392.00
1.905	1.989	32.70
1.919	2.035	196.00
1.997	2.287	29.14
2.016	2.344	587.33
2.028	2.079	493.88
2.050	2.649	523.25
2.192	2.474	659.26
2.260	2.336	1318.51
2.332	2.407	554.37
2.376	2.472	587.33
2.470	2.569	29.14
2.495	2.778	783.99
2.651	3.248	1046.50
2.667	2.741	32.70
2.781	2.858	196.00
2.784	3.165	29.14
2.798	3.063	1318.51
2.799	2.909	32.70
2.916	3.053	32.70
3.030	3.353	130.81
3.100	3.331	1567.98
3.156	3.255	32.70
3.239	3.843	2093.00
3.346	3.459	65.41
3.401	3.666	2637.02
3.401	3.472	2793.83
3.486	3.572	65.41
3.557	3.622	130.81
3.680	3.871	65.41
3.703	3.917	1567.98
3.836	3.951	32.70
3.842	4.428	1046.50
3.942	4.147	29.14
4.005	4.262	1318.51
4.101	4.181	196.00
4.131	4.260	32.70
4.274	4.587	783.99
4.285	4.377	29.14
4.426	5.038	523.25
4.434	4.503	65.41
4.584	4.885	659.26
4.588	4.668	29.14
4.654	4.726	1318.51
4.885	5.143	392.00
5.005	5.162	29.14
5.039	5.656	261.63
5.071	5.131	783.99
5.174	5.487	329.63
5.177	5.240	311.13
5.217	5.574	29.14
5.473	5.989	196.00
5.559	5.710	1567.98
5.596	6.625	29.14
5.620	5.809	130.81
5.696	5.753	261.63
5.769	8.282	87.31
5.779	5.853	92.50
5.816	6.104	43.65
5.821	8.123	130.81
5.830	6.091	1244.51
5.863	5.938	554.37
5.971	6.280	554.37
5.985	6.293	261.63
6.002	6.051	587.33
6.071	6.145	116.54
6.094	7.046	220.00
6.101	6.202	1244.51
6.119	6.250	1760.00
6.135	6.414	43.65
6.165	6.212	587.33
6.278	6.376	587.33
6.278	6.373	783.99
6.318	6.376	261.63
6.374	6.438	185.00
6.390	6.656	174.61
6.396	6.593	349.23
6.423	7.443	43.65
6.555	7.152	261.63
6.574	6.632	466.16
6.671	6.764	466.16
6.699	6.923	440.00
6.820	7.093	29.14
6.825	6.938	554.37
6.860	7.095	523.25
6.999	7.258	698.46
7.049	7.151	220.00
7.158	7.454	523.25
7.165	7.946	29.14
7.175	7.287	220.00
7.301	7.559	880.00
7.436	7.554	220.00
7.442	8.060	1046.50
7.520	7.697	43.65
7.568	7.721	220.00
7.604	7.788	1396.91
7.904	8.104	1760.00
8.045	8.257	2093.00
8.097	8.182	43.65
8.123	13.232	29.14
8.180	10.652	92.50
8.193	8.463	2637.02
8.204	8.256	1760.00
8.207	8.584	277.18
8.208	8.320	587.33
8.222	8.282	554.37
8.222	10.158	46.25
8.231	8.321	1046.50
8.234	8.336	130.81
8.275	8.354	622.25
8.276	8.342	659.26
8.300	8.405	523.25
8.318	8.513	2093.00
8.330	9.230	1046.50
8.353	8.481	659.26
8.369	8.418	466.16
8.391	8.473	622.25
8.490	8.662	1760.00
8.568	8.627	2093.00
8.666	8.866	277.18
8.786	8.837	587.33
8.802	9.055	1318.51
8.848	8.932	1760.00
8.867	8.980	554.37
8.974	9.171	277.18
9.090	9.385	880.00
9.230	9.836	523.25
9.390	9.672	659.26
9.415	9.583	277.18
9.692	9.974	440.00
9.836	10.452	261.63
9.971	10.344	293.66
9.972	10.028	311.13
9.994	10.252	587.33
10.161	10.449	46.25
10.179	10.233	523.25
10.273	10.580	220.00
10.321	10.457	1760.00
10.426	10.786	130.81
10.448	10.508	196.00
10.575	12.409	98.00
10.600	10.838	698.46
10.620	10.883	349.23
10.623	10.884	1108.73
10.632	10.882	587.33
10.632	11.794	49.00
10.730	10.789	220.00
10.736	12.326	123.47
10.759	10.907	369.99
10.774	10.840	92.50
10.872	11.612	246.94
10.898	11.164	196.00
10.918	10.979	1108.73
10.923	11.049	349.23
10.946	11.041	369.99
11.010	11.317	1108.73
11.084	11.178	698.46
11.085	11.256	349.23
11.104	11.160	783.99
11.175	11.240	277.18
11.176	11.248	311.13
11.203	11.437	293.66
11.203	11.392	587.33
11.302	11.371	196.00
11.332	11.403	1108.73
11.425	11.483	1108.73
11.450	11.593	349.23
11.503	11.760	392.00
11.528	11.575	1108.73
11.587	11.645	369.99
11.643	12.251	493.88
11.779	11.837	87.31
11.783	12.040	587.33
11.786	13.119	92.50
11.792	12.009	138.59
11.804	11.873	164.81
11.806	11.861	220.00
11.822	11.888	233.08
11.830	12.400	46.25
11.830	11.896	130.81
11.839	11.902	554.37
11.852	11.901	1046.50
11.868	11.941	116.54
11.893	12.097	49.00
11.899	12.154	277.18
11.905	11.973	659.26
11.942	12.010	164.81
12.091	12.376	783.99
12.145	12.348	49.00
12.165	12.350	138.59
12.201	12.263	1046.50
12.247	12.413	987.77
12.270	12.337	329.63
12.315	12.367	554.37
12.388	12.461	246.94
12.389	12.789	138.59
12.390	12.484	130.81
12.393	12.469	293.66
12.395	13.010	82.41
12.406	12.942	123.47
12.409	12.523	220.00
12.409	12.578	1174.66
12.410	12.716	587.33
12.413	13.021	98.00
12.430	12.569	41.20
12.492	12.551	293.66
12.519	12.589	185.00
12.550	12.695	987.77
12.573	12.716	493.88
12.597	13.066	46.25
12.630	12.709	41.20
12.713	12.917	1567.98
12.824	12.906	493.88
12.851	13.331	1760.00
12.870	12.941	523.25
12.896	13.012	587.33
12.908	13.087	138.59
12.948	14.404	73.42
12.984	13.046	77.78
12.988	13.067	220.00
12.990	13.101	123.47
12.991	13.330	2349.32
13.008	13.065	523.25
13.014	13.120	1108.73
13.025	13.185	82.41
13.038	13.152	1396.91
13.074	14.659	36.71
13.082	13.179	1046.50
13.099	13.156	220.00
13.163	13.343	1108.73
13.223	13.309	1046.50
13.257	13.320	1396.91
13.269	13.340	220.00
13.310	14.271	146.83
13.312	13.460	1479.98
13.384	13.522	220.00
13.405	13.547	1108.73
13.451	13.724	1046.50
13.490	13.711	1760.00
13.594	13.875	1174.66
13.735	14.015	880.00
13.748	13.805	369.99
13.884	14.163	369.99
13.897	14.199	739.99
14.036	14.339	523.25
14.175	14.223	554.37
14.190	14.463	587.33
14.197	14.249	82.41
14.319	14.699	146.83
14.338	14.387	466.16
14.358	14.619	440.00
14.447	15.382	73.42
14.475	14.530	349.23
14.483	14.850	369.99
14.488	14.583	29.14
14.625	14.890	29.14
14.637	14.688	246.94
14.639	14.968	261.63
14.668	14.969	36.71
14.774	14.844	277.18
14.778	15.085	293.66
14.779	14.917	146.83
14.779	14.827	311.13
14.800	14.950	587.33
14.919	15.015	146.83
14.924	15.467	220.00
14.949	15.044	29.14
14.987	15.232	1760.00
15.078	15.313	146.83
15.083	15.377	185.00
15.090	15.171	29.14
15.164	15.221	36.71
15.190	15.360	739.99
15.211	16.242	29.14
15.221	17.206	130.81
15.286	15.435	92.50
15.315	15.438	146.83
15.367	18.742	98.00
15.381	15.453	87.31
15.404	15.645	698.46
15.421	16.744	49.00
15.426	15.804	587.33
15.429	15.688	1108.73
15.431	15.532	73.42
15.638	15.686	1396.91
15.662	17.799	174.61
15.687	15.772	349.23
15.727	15.848	1108.73
15.774	15.830	698.46
15.801	15.854	466.16
15.822	15.880	220.00
15.824	17.567	207.65
15.862	15.959	415.30
15.873	15.975	830.61
15.893	15.944	1108.73
15.960	16.073	138.59
15.966	16.052	103.83
15.984	16.034	277.18
16.001	16.263	293.66
16.046	16.128	830.61
16.058	16.133	415.30
16.104	16.193	138.59
16.117	16.272	146.83
16.151	16.367	261.63
16.187	16.271	830.61
16.243	16.416	29.14
16.291	16.548	349.23
16.307	16.407	830.61
16.411	16.735	415.30
16.423	16.506	32.70
16.424	16.475	146.83
16.472	16.553	830.61
16.490	16.740	29.14
16.496	16.563	1108.73
16.588	16.648	146.83
16.590	16.807	587.33
16.659	16.707	349.23
16.660	16.708	698.46
16.667	16.774	1174.66
16.687	16.797	146.83
16.752	17.018	523.25
16.762	17.197	49.00
16.768	17.883	29.14
16.855	16.949	146.83
16.891	17.162	698.46
17.050	17.374	830.61
17.194	17.469	1174.66
17.235	17.316	49.00
17.332	17.393	146.83
17.356	17.620	1046.50
17.378	17.476	49.00
17.396	17.517	130.81
17.463	17.530	349.23
17.494	17.547	73.42
17.496	17.688	1396.91
17.555	17.640	49.00
17.614	17.706	130.81
17.656	17.737	1661.22
17.721	17.782	49.00
17.774	17.833	698.46
17.798	18.143	2349.32
17.936	19.775	29.14
17.951	18.188	1567.98
17.984	18.270	49.00
18.099	18.271	1396.91
18.149	18.276	698.46
18.239	18.511	987.77
18.308	18.382	49.00
18.396	18.656	1174.66
18.541	18.844	783.99
18.562	18.670	49.00
18.672	19.021	698.46
18.726	18.812	49.00
18.826	19.135	493.88
18.975	19.275	587.33
18.980	19.029	554.37
19.069	19.131	1174.66
19.143	19.401	392.00
19.255	19.330	49.00
19.266	19.641	349.23
19.330	19.421	783.99
19.355	19.424	587.33
19.431	19.762	246.94
19.567	19.921	311.13
19.578	19.633	293.66
19.580	19.635	329.63
19.632	19.749	1567.98
19.636	19.703	2217.46
19.688	19.865	98.00
19.731	20.178	196.00
19.874	20.173	174.61
19.897	21.021	29.14
19.908	20.090	698.46
20.025	20.303	123.47
20.050	20.193	369.99
20.063	20.316	246.94
20.172	20.260	146.83
20.186	21.873	65.41
20.189	20.415	130.81
20.194	20.374	196.00
20.208	20.306	1479.98
20.217	20.772	466.16
20.230	20.295	92.50
20.276	20.382	369.99
20.378	20.951	196.00
20.480	20.544	220.00
20.489	20.633	261.63
20.503	20.635	587.33
20.527	20.656	130.81
20.538	20.616	1567.98
20.649	20.755	523.25
20.671	21.074	587.33
20.672	21.247	261.63
20.776	22.129	130.81
20.785	21.050	329.63
20.789	20.967	783.99
20.832	21.042	466.16
21.048	21.116	196.00
21.085	21.351	392.00
21.104	21.189	32.70
21.124	21.238	196.00
21.197	21.482	29.14
21.218	21.544	587.33
21.251	21.847	523.25
21.394	21.671	659.26
21.462	21.538	1318.51
21.533	21.606	554.37
21.578	21.669	587.33
21.669	21.768	29.14
21.697	21.980	783.99
21.722	21.779	587.33
21.838	22.448	1046.50
21.868	21.942	32.70
21.985	22.056	196.00
21.990	22.364	29.14
22.001	22.262	1318.51
22.002	22.106	32.70
22.118	22.284	32.70
22.233	22.553	130.81
22.241	22.322	65.41
22.302	22.532	1567.98
22.357	22.440	32.70
22.442	23.031	2093.00
22.548	22.661	65.41
22.604	22.865	2637.02
22.604	22.671	2793.83
22.686	22.773	65.41
22.757	22.825	130.81
22.821	23.066	65.41
22.906	23.117	1567.98
23.027	23.191	32.70
23.045	23.628	1046.50
23.176	23.387	29.14
23.184	23.251	196.00
23.200	23.456	1318.51
23.214	23.301	32.70
23.311	23.458	32.70
23.474	23.778	783.99
23.478	23.574	29.14
23.626	24.237	523.25
23.633	23.704	65.41
23.782	24.081	659.26
23.787	23.862	29.14
23.857	23.922	1318.51
24.087	24.345	392.00
24.204	24.358	29.14
24.240	24.857	261.63
24.273	24.331	783.99
24.375	24.684	329.63
24.422	24.775	29.14
24.674	25.052	196.00
24.760	24.885	1567.98
24.799	27.323	29.14
24.819	27.132	130.81
24.978	27.144	110.00
24.991	25.099	92.50
25.000	26.087	55.00
25.008	25.436	220.00
25.014	25.097	77.78
25.017	25.163	783.99
25.022	25.100	261.63
25.036	25.278	493.88
25.055	25.131	1760.00
25.064	25.136	1318.51
25.066	25.256	622.25
25.127	25.197	196.00
25.170	25.276	554.37
25.171	25.339	261.63
25.204	25.300	1318.51
25.257	25.350	196.00
25.274	25.333	185.00
25.280	27.297	174.61
25.299	25.440	698.46
25.339	25.760	554.37
25.343	25.444	493.88
25.351	25.630	261.63
25.439	25.862	349.23
25.457	25.861	783.99
25.469	25.573	493.88
25.477	25.565	220.00
25.666	25.773	220.00
25.717	25.995	261.63
25.765	25.879	554.37
25.797	25.880	220.00
25.891	26.182	349.23
25.969	26.082	554.37
26.062	26.316	523.25
26.089	26.174	55.00
26.175	26.673	698.46
26.220	26.326	55.00
26.325	26.696	523.25
26.639	26.771	349.23
26.662	26.908	1046.50
26.807	26.999	1396.91
26.840	26.943	349.23
26.853	26.917	523.25
26.929	27.222	1046.50
27.013	27.291	349.23
27.108	27.296	1396.91
27.221	27.308	130.81
27.248	27.830	2093.00
27.274	27.392	110.00
27.383	29.582	29.14
27.388	27.663	2637.02
27.392	27.470	2793.83
27.460	27.537	110.00
27.585	27.728	110.00
27.698	27.868	1479.98
27.747	27.831	110.00
27.835	28.433	1046.50
27.998	28.263	1318.51
28.291	28.614	739.99
28.432	29.150	523.25
28.577	28.910	659.26
28.663	28.717	1318.51
28.879	29.245	369.99
29.032	29.640	261.63
29.034	29.087	246.94
29.175	29.236	311.13
29.176	29.470	329.63
29.359	29.473	659.26
29.478	29.770	185.00
29.567	29.783	739.99
29.597	30.618	29.14
29.616	31.582	130.81
29.662	29.722	392.00
29.745	29.831	92.50
29.777	32.632	98.00
29.779	29.850	110.00
29.802	30.043	698.46
29.821	31.717	49.00
29.823	29.918	349.23
29.825	29.959	587.33
29.826	30.083	1108.73
29.972	30.082	587.33
30.059	30.171	466.16
30.094	30.551	196.00
30.126	30.247	1108.73
30.174	30.314	349.23
30.246	30.323	493.88
30.256	30.937	261.63
30.273	30.408	698.46
30.283	30.363	523.25
30.288	30.351	1108.73
30.375	30.431	277.18
30.377	30.437	311.13
30.405	30.623	293.66
30.468	30.586	587.33
30.566	30.678	146.83
30.683	31.111	29.14
30.706	30.900	392.00
30.859	31.396	523.25
30.964	31.129	698.46
30.980	31.036	554.37
30.985	31.255	587.33
31.133	31.209	146.83
31.143	31.208	349.23
31.200	31.391	29.14
31.288	31.598	783.99
31.349	31.454	698.46
31.415	31.978	29.14
31.451	31.709	1046.50
31.467	31.576	349.23
31.590	31.868	1174.66
31.736	32.031	1046.50
31.818	31.918	130.81
31.893	32.123	1567.98
31.954	32.049	49.00
32.054	32.446	2093.00
32.090	32.179	49.00
32.194	32.541	2349.32
32.204	32.304	698.46
32.269	32.349	49.00
32.350	32.504	1975.53
32.419	32.476	49.00
32.473	33.205	29.14
32.496	32.739	1567.98
32.587	32.666	698.46
32.590	32.661	49.00
32.635	33.217	987.77
32.681	32.790	98.00
32.692	32.788	49.00
32.792	33.070	1174.66
32.818	32.908	98.00
32.919	33.058	98.00
32.970	33.081	49.00
33.082	33.413	783.99
33.141	33.213	49.00
33.219	33.841	493.88
33.282	33.333	98.00
33.294	33.720	29.14
33.378	33.427	554.37
33.379	33.657	587.33
33.488	33.614	1174.66
33.683	33.930	392.00
33.733	35.464	29.14
33.839	34.715	246.94
33.885	33.981	783.99
33.975	34.041	311.13
33.978	34.346	293.66
33.982	34.034	277.18
33.993	34.238	587.33
34.210	34.282	98.00
34.284	36.939	196.00
34.429	34.683	123.47
34.464	34.709	369.99
34.590	36.138	65.41
34.607	36.053	130.81
34.631	34.744	466.16
34.632	34.697	92.50
34.725	37.035	146.83
34.733	35.896	293.66
34.755	35.028	466.16
34.873	34.946	185.00
34.932	35.033	783.99
35.188	35.237	349.23
35.189	35.441	329.63
35.468	35.642	32.70
35.478	36.066	29.14
35.512	35.636	392.00
35.536	35.687	783.99
35.652	35.850	587.33
35.793	36.065	659.26
35.916	36.067	293.66
35.931	35.985	554.37
35.950	36.149	587.33
36.074	36.274	293.66
36.075	36.186	29.14
36.094	36.376	783.99
36.146	36.279	65.41
36.167	36.369	261.63
36.257	36.492	1174.66
36.323	36.820	29.14
36.377	36.644	261.63
36.397	36.643	1318.51
36.496	36.581	293.66
36.540	36.817	1174.66
36.584	36.669	293.66
36.677	36.751	65.41
36.699	36.944	1567.98
36.808	36.866	65.41
36.839	37.173	2349.32
37.001	37.259	2637.02
37.001	37.065	2793.83
37.078	37.195	65.41
37.140	37.430	2093.00
37.303	37.504	1567.98
37.442	38.024	1046.50
37.468	37.541	32.70
37.562	37.671	29.14
37.604	37.849	1318.51
37.622	37.695	32.70
37.724	37.792	29.14
37.766	37.820	32.70
37.883	37.938	130.81
37.883	38.165	783.99
37.888	37.969	29.14
38.033	38.627	523.25
38.185	38.465	659.26
38.197	38.496	130.81
38.254	38.319	1318.51
38.487	38.745	392.00
38.614	38.742	29.14
38.629	39.382	261.63
38.736	39.003	130.81
38.784	39.070	329.63
38.918	39.035	29.14
39.079	39.437	196.00
39.222	40.509	29.14
39.225	39.542	130.81
39.385	40.603	110.00
39.400	39.499	261.63
39.407	39.543	220.00
39.415	39.465	783.99
39.420	39.545	55.00
39.433	39.533	493.88
39.473	39.542	554.37
39.531	39.579	155.56
39.551	40.604	164.81
39.574	40.128	55.00
39.597	40.285	554.37
39.624	39.816	220.00
39.660	39.798	587.33
39.683	40.908	261.63
39.856	39.915	329.63
39.971	40.046	329.63
39.994	40.257	349.23
40.063	40.136	659.26
40.157	40.312	329.63
40.319	40.531	523.25
40.459	40.639	659.26
40.562	40.643	55.00
40.577	41.320	29.14
40.585	40.879	698.46
40.637	40.803	110.00
40.639	41.628	164.81
40.743	40.974	659.26
40.902	41.160	1046.50
40.947	41.045	261.63
41.068	41.215	1318.51
41.119	41.206	110.00
41.203	41.406	1396.91
41.320	41.432	29.14
41.348	41.534	1318.51
41.503	41.805	2093.00
41.645	41.739	2637.02
41.645	41.697	2793.83
41.762	42.200	29.14
41.783	42.491	123.47
41.793	42.058	2793.83
41.799	43.290	61.74
41.856	42.090	369.99
41.875	41.943	1244.51
41.947	42.088	2349.32
41.997	42.079	698.46
42.015	42.520	246.94
42.109	42.221	1975.53
42.122	42.235	2349.32
42.132	42.412	369.99
42.248	42.491	1174.66
42.399	42.566	1396.91
42.407	42.898	29.14
42.477	42.573	369.99
42.520	42.591	123.47
42.530	42.620	246.94
42.534	42.782	1174.66
42.682	42.814	246.94
42.690	42.948	987.77
42.829	43.410	587.33
42.902	43.384	29.14
42.988	43.116	185.00
42.989	44.214	110.00
42.991	43.271	698.46
42.992	43.162	783.99
43.010	43.142	220.00
43.031	43.263	55.00
43.034	43.092	246.94
43.076	43.207	123.47
43.110	43.181	659.26
43.150	43.305	554.37
43.196	43.248	783.99
43.249	43.575	493.88
43.269	43.405	123.47
43.299	43.521	61.74
43.329	43.396	220.00
43.360	43.434	554.37
43.382	43.468	55.00
43.394	43.838	29.14
43.428	44.272	293.66
43.478	43.578	659.26
43.525	43.643	554.37
43.582	43.875	349.23
43.610	43.836	659.26
43.621	43.874	61.74
43.689	43.765	554.37
43.855	44.017	29.14
43.884	44.199	246.94
43.919	44.010	61.74
44.033	45.694	146.83
44.070	44.343	29.14
44.187	45.403	103.83
44.197	44.256	185.00
44.218	46.624	51.91
44.222	44.339	466.16
44.266	44.482	523.25
44.345	45.402	293.66
44.394	44.926	29.14
44.476	44.541	233.08
44.484	45.978	246.94
44.653	44.742	523.25
44.779	45.061	329.63
45.014	45.349	29.14
45.102	45.327	493.88
45.243	45.455	587.33
45.383	45.674	659.26
45.404	46.265	29.14
45.412	45.751	103.83
45.453	45.528	293.66
45.544	45.783	587.33
45.706	45.942	987.77
45.775	45.972	146.83
45.826	45.897	103.83
45.847	46.077	1174.66
46.005	46.229	1318.51
46.137	46.374	1174.66
46.141	46.208	103.83
46.295	46.426	1975.53
46.451	46.590	2349.32
46.542	46.930	29.14
46.590	47.809	110.00
46.591	46.692	261.63
46.591	46.703	2637.02
46.605	46.755	659.26
46.616	46.741	2349.32
46.625	47.198	55.00
46.637	47.099	493.88
46.643	46.849	783.99
46.681	47.485	554.37
46.695	46.823	220.00
46.713	46.839	2637.02
46.752	46.908	2093.00
46.822	46.879	1318.51
46.885	47.022	1760.00
46.890	46.943	783.99
46.956	47.032	2093.00
46.975	47.117	783.99
47.007	47.084	220.00
47.041	47.621	1046.50
47.053	47.109	29.14
47.076	47.476	659.26
47.143	47.228	493.88
47.171	49.826	29.14
47.206	47.380	1318.51
47.253	47.419	55.00
47.495	47.754	880.00
47.512	47.603	55.00
47.565	47.614	554.37
47.573	47.661	220.00
47.633	48.212	523.25
47.778	49.179	98.00
47.798	47.845	622.25
47.798	48.055	698.46
47.798	48.034	659.26
47.820	48.204	587.33
47.821	48.979	49.00
47.843	47.954	110.00
47.854	47.931	1108.73
47.942	48.078	1108.73
48.021	48.077	329.63
48.067	48.144	220.00
48.100	48.264	440.00
48.191	48.381	698.46
48.217	48.385	220.00
48.231	48.821	261.63
48.282	48.356	493.88
48.367	48.447	349.23
48.389	48.667	329.63
48.516	48.581	554.37
48.559	48.628	220.00
48.586	48.681	698.46
48.644	49.001	220.00
48.681	48.738	233.08
48.819	50.885	130.81
48.959	51.999	87.31
48.997	49.066	110.00
49.005	49.292	43.65
49.052	49.112	1244.51
49.060	49.299	554.37
49.118	49.204	196.00
49.128	49.193	622.25
49.185	49.574	261.63
49.280	49.352	116.54
49.293	50.239	220.00
49.314	49.471	554.37
49.346	49.458	43.65
49.479	49.761	43.65
49.566	49.870	329.63
49.570	49.657	311.13
49.584	49.638	174.61
49.735	50.194	261.63
49.805	49.869	43.65
49.888	49.936	51.91
49.910	50.093	440.00
49.962	50.039	43.65
50.029	50.271	29.14
50.070	50.271	523.25
50.099	50.180	43.65
50.189	50.440	659.26
50.220	50.335	261.63
50.237	50.325	43.65
50.320	50.498	220.00
50.352	50.639	523.25
50.387	50.599	29.14
50.396	50.641	43.65
50.491	50.751	880.00
50.617	50.706	29.14
50.654	50.921	1046.50
50.731	50.880	43.65
50.742	50.868	29.14
50.812	51.035	1318.51
50.878	50.934	220.00
50.900	51.128	29.14
50.935	51.246	1046.50
50.962	51.344	130.81
51.024	51.083	220.00
51.038	51.122	43.65
51.095	51.291	1760.00
51.253	51.641	2093.00
51.362	51.437	130.81
51.397	51.722	2489.02
51.546	51.688	1975.53
51.688	51.902	1760.00
51.833	52.419	987.77
51.953	52.192	29.14
51.993	52.259	1244.51
52.008	52.879	87.31
52.284	52.351	29.14
52.287	52.581	880.00
52.430	53.024	493.88
52.575	52.633	130.81
52.580	52.871	622.25
52.885	53.165	440.00
52.922	53.011	87.31
53.017	53.114	29.14
53.035	53.791	246.94
53.044	53.094	32.70
53.060	53.147	87.31
53.175	53.485	311.13
53.179	53.250	87.31
53.321	53.426	29.14
53.487	53.772	220.00
53.493	53.584	87.31
53.501	53.565	29.14
53.593	53.650	29.14
53.626	53.689	130.81
53.639	53.811	123.47
53.670	53.816	369.99
53.744	54.039	29.14
53.776	56.115	82.41
53.806	53.864	130.81
53.834	53.885	587.33
53.852	54.264	41.20
53.891	53.989	185.00
53.931	54.453	123.47
53.950	53.998	880.00
53.966	54.152	369.99
53.974	54.870	246.94
54.024	54.138	587.33
54.054	54.570	29.14
54.073	55.302	220.00
54.284	54.395	41.20
54.409	54.607	329.63
54.700	54.917	440.00
54.810	55.249	29.14
54.855	55.096	493.88
54.996	55.212	659.26
55.041	55.129	246.94
55.138	55.412	493.88
55.253	55.536	29.14
55.298	55.550	880.00
55.339	55.395	246.94
55.454	55.509	220.00
55.457	55.674	987.77
55.586	55.674	29.14
55.607	55.813	1318.51
55.735	55.990	987.77
55.901	56.038	1760.00
56.047	56.170	1975.53
56.204	56.441	2637.02
56.204	56.257	2793.83
56.341	56.462	1975.53
56.505	56.580	1661.22
56.644	56.910	987.77
56.785	56.900	29.14
56.808	57.014	1318.51
56.901	56.984	29.14
56.926	57.204	987.77
56.969	57.023	82.41
57.086	57.424	830.61
57.228	57.832	493.88
57.388	57.667	659.26
57.681	57.990	415.30
57.825	57.912	29.14
57.832	58.434	246.94
57.991	58.261	329.63
58.276	58.712	207.65
58.335	58.573	830.61
58.444	58.708	123.47
58.470	58.720	246.94
58.471	58.576	369.99
58.554	59.859	29.14
58.595	60.063	110.00
58.596	58.761	783.99
58.606	58.671	220.00
58.641	58.753	55.00
58.749	59.059	164.81
58.757	58.816	587.33
58.765	59.343	55.00
58.800	59.017	554.37
58.803	58.852	783.99
58.826	59.816	220.00
59.028	60.251	277.18
59.087	59.178	164.81
59.185	59.439	392.00
59.245	59.707	164.81
59.382	59.485	329.63
59.531	59.629	55.00
59.539	59.693	440.00
59.640	59.873	554.37
59.739	59.848	55.00
59.786	60.100	783.99
59.925	60.726	164.81
59.936	60.112	220.00
59.945	60.093	659.26
59.960	60.014	29.14
60.064	60.292	29.14
60.102	60.349	880.00
60.135	60.253	110.00
60.244	60.491	1108.73
60.275	60.399	277.18
60.363	60.493	29.14
60.379	60.452	220.00
60.406	60.631	1567.98
60.413	60.550	277.18
60.539	60.798	1108.73
60.543	60.614	29.14
60.578	60.703	277.18
60.674	60.798	29.14
60.687	60.969	880.00
60.765	60.830	164.81
60.847	61.123	659.26