0.961	1.075	29.14
0.993	1.496	392.00
0.996	1.541	196.00
1.009	1.568	246.94
1.449	1.643	493.88
1.519	1.747	440.00
1.559	1.675	29.14
1.581	1.916	392.00
1.592	4.375	196.00
1.607	3.445	246.94
2.462	2.626	29.14
2.477	2.948	293.66
2.764	2.876	29.14
2.796	3.103	392.00
3.063	3.192	29.14
3.111	3.701	493.88
3.353	3.492	29.14
3.396	4.099	261.63
3.539	4.137	440.00
3.703	3.913	392.00
3.952	4.092	29.14
4.003	4.292	392.00
4.005	4.430	246.94
4.294	4.857	587.33
4.590	5.791	349.23
4.606	4.701	29.14
4.607	4.804	392.00
4.869	5.157	587.33
4.891	4.982	29.14
4.904	5.107	392.00
5.171	5.455	587.33
5.190	5.287	29.14
5.200	5.417	392.00
5.474	5.755	587.33
5.488	5.587	29.14
5.501	5.713	392.00
5.776	6.502	587.33
5.783	5.934	29.14
5.790	6.255	392.00
5.795	6.250	329.63
6.242	6.421	659.26
6.263	6.395	392.00
6.278	6.344	329.63
6.392	6.838	523.25
6.401	6.672	392.00
6.484	6.612	329.63
6.671	6.794	29.14
6.693	7.132	293.66
6.695	7.140	493.88
6.705	7.061	349.23
6.950	7.089	29.14
7.001	7.413	440.00
7.020	7.726	261.63
7.021	7.751	329.63
7.290	7.920	880.00
7.301	7.357	29.14
7.556	7.684	29.14
7.587	8.309	277.18
7.886	8.493	783.99
8.166	8.285	29.14
8.182	8.922	293.66
8.207	8.335	587.33
8.341	8.645	739.99
8.388	8.513	587.33
8.487	8.763	659.26
8.634	9.654	587.33
9.540	9.817	659.26
9.688	10.004	523.25
9.833	10.108	587.33
9.984	10.290	493.88
10.137	10.449	523.25
10.288	10.581	440.00
10.435	10.693	493.88
10.557	10.690	29.14
10.591	11.151	196.00
10.598	11.082	392.00
10.615	11.170	246.94
10.900	10.957	29.14
11.059	11.241	493.88
11.112	11.345	440.00
11.159	11.272	29.14
11.185	11.508	392.00
11.189	12.980	196.00
11.211	13.025	246.94
11.502	11.555	29.14
11.805	11.854	29.14
12.060	12.225	29.14
12.079	12.548	293.66
12.364	12.476	29.14
12.404	12.713	392.00
12.662	12.791	29.14
12.709	13.302	493.88
12.954	13.098	29.14
12.997	13.697	261.63
12.997	14.015	196.00
13.135	13.738	440.00
13.315	13.499	392.00
13.549	13.698	29.14
13.597	13.911	392.00
13.613	14.035	246.94
13.888	14.462	659.26
14.194	14.272	29.14
14.198	14.470	493.88
14.218	14.426	392.00
14.484	14.763	659.26
14.485	14.769	493.88
14.488	14.561	29.14
14.516	14.726	392.00
14.786	15.062	659.26
14.787	14.863	29.14
14.789	15.063	493.88
14.802	15.042	392.00
15.086	15.164	29.14
15.089	15.363	659.26
15.097	15.367	493.88
15.102	15.337	392.00
15.382	15.493	29.14
15.389	15.902	659.26
15.393	16.706	493.88
15.408	16.585	392.00
15.847	15.987	783.99
15.917	16.127	880.00
15.975	16.149	29.14
16.008	16.134	987.77
16.285	16.349	29.14
16.447	16.699	783.99
16.520	16.708	659.26
16.538	16.701	29.14
16.590	17.610	587.33
16.607	17.301	369.99
16.607	17.377	220.00
17.178	17.304	29.14
17.196	17.620	329.63
17.287	17.917	554.37
17.476	17.584	29.14
17.518	17.783	220.00
17.587	17.806	493.88
17.699	17.762	164.81
17.786	18.077	587.33
17.787	23.279	293.66
17.793	17.955	29.14
17.796	19.072	369.99
17.937	18.196	659.26
18.092	18.215	29.14
18.125	18.311	739.99
18.239	18.544	783.99
18.367	18.480	29.14
18.401	18.633	880.00
18.562	18.710	739.99
18.696	18.954	659.26
18.699	18.881	29.14
18.828	19.381	587.33
18.971	19.097	29.14
18.986	19.273	554.37
18.999	20.229	392.00
19.301	19.552	659.26
19.302	19.365	29.14
19.441	19.733	739.99
19.574	19.664	29.14
19.605	19.816	783.99
19.740	20.006	659.26
19.898	19.974	29.14
19.905	20.470	587.33
20.038	20.307	554.37
20.170	20.314	29.14
20.188	21.471	369.99
20.340	20.586	659.26
20.485	20.614	29.14
20.531	20.705	739.99
20.640	20.936	783.99
20.777	20.872	29.14
20.793	21.032	880.00
20.954	21.093	739.99
21.095	21.351	659.26
21.109	21.262	29.14
21.253	21.703	587.33
21.372	21.497	29.14
21.390	21.676	554.37
21.397	22.629	392.00
21.695	21.753	29.14
21.698	21.947	659.26
21.838	22.130	739.99
21.987	22.055	29.14
22.000	22.210	783.99
22.140	22.405	659.26
22.300	22.380	29.14
22.300	22.566	587.33
22.438	22.705	554.37
22.560	22.743	29.14
22.587	23.155	587.33
22.587	23.304	369.99
23.115	23.374	1108.73
23.142	23.276	29.14
23.190	23.786	1174.66
23.755	23.961	29.14
23.786	24.594	146.83
23.798	24.556	73.42
23.805	23.916	587.33
23.823	24.080	1108.73
23.896	23.956	220.00
24.961	25.081	29.14
24.996	25.542	392.00
24.996	25.530	196.00
25.015	25.563	246.94
25.459	25.648	493.88
25.515	25.740	440.00
25.569	25.680	29.14
25.582	25.906	392.00
25.587	27.380	196.00
25.611	27.404	246.94
25.901	25.954	29.14
26.458	26.625	29.14
26.478	26.944	293.66
26.770	26.884	29.14
26.804	27.110	392.00
27.062	27.190	29.14
27.106	27.714	493.88
27.132	27.180	587.33
27.353	27.484	29.14
27.396	28.379	196.00
27.397	28.077	261.63
27.431	27.492	523.25
27.538	28.150	440.00
27.711	27.910	392.00
27.952	28.092	29.14
28.007	28.330	392.00
28.012	28.427	246.94
28.290	28.860	587.33
28.589	29.808	349.23
28.595	28.817	392.00
28.604	28.703	29.14
28.877	29.163	587.33
28.891	28.987	29.14
28.894	29.113	392.00
29.178	29.467	587.33
29.190	29.288	29.14
29.193	29.413	392.00
29.478	29.765	587.33
29.490	29.584	29.14
29.496	29.710	392.00
29.780	30.487	587.33
29.784	29.927	29.14
29.788	30.260	392.00
29.801	30.253	329.63
29.825	29.876	32.70
30.240	30.416	659.26
30.272	30.402	392.00
30.386	30.835	523.25
30.414	30.668	392.00
30.510	30.619	329.63
30.670	30.793	29.14
30.688	31.132	293.66
30.691	31.143	493.88
30.704	31.114	349.23
30.950	31.089	29.14
31.008	31.414	440.00
31.010	31.735	261.63
31.028	31.745	329.63
31.033	31.080	523.25
31.288	31.883	880.00
31.557	31.686	29.14
31.587	32.309	277.18
31.590	31.638	174.61
31.886	32.496	783.99
32.166	32.285	29.14
32.184	32.920	293.66
32.337	32.642	739.99
32.339	32.520	587.33
32.489	32.764	659.26
32.634	33.655	587.33
33.538	33.813	659.26
33.687	34.005	523.25
33.835	34.107	587.33
33.982	34.292	493.88
34.135	34.449	523.25
34.287	34.581	440.00
34.435	34.635	493.88
34.552	34.690	29.14
34.588	35.104	196.00
34.598	35.158	392.00
34.612	35.132	246.94
34.632	34.680	32.70
35.062	35.241	493.88
35.119	35.338	440.00
35.170	35.280	29.14
35.177	35.515	392.00
35.192	37.987	196.00
35.210	37.002	246.94
36.062	36.226	29.14
36.077	36.544	293.66
36.369	36.484	29.14
36.397	36.703	392.00
36.663	36.791	29.14
36.712	37.315	493.88
36.955	37.087	29.14
36.995	37.603	261.63
37.139	37.750	440.00
37.302	37.513	392.00
37.551	37.693	29.14
37.603	37.980	392.00
37.604	38.034	246.94
37.887	38.462	659.26
38.194	38.270	29.14
38.204	38.466	493.88
38.208	38.437	392.00
38.489	38.567	29.14
38.492	38.763	659.26
38.505	38.767	493.88
38.509	38.738	392.00
38.788	38.867	29.14
38.793	39.064	659.26
38.807	39.070	493.88
38.810	39.038	392.00
39.083	39.364	659.26
39.088	39.165	29.14
39.104	40.729	493.88
39.113	39.328	392.00
39.375	39.904	659.26
39.384	39.487	29.14
39.414	40.636	392.00
39.853	39.994	783.99
39.917	40.126	880.00
39.983	40.143	29.14
39.996	40.134	987.77
40.287	40.350	29.14
40.454	40.599	783.99
40.513	40.718	659.26
40.549	40.694	29.14
40.585	41.622	587.33
40.600	41.341	369.99
40.602	40.689	783.99
40.606	41.373	220.00
41.178	41.310	29.14
41.191	41.681	329.63
41.294	41.911	554.37
41.489	41.574	29.14
41.515	41.783	220.00
41.583	41.807	493.88
41.784	42.068	587.33
41.787	47.294	293.66
41.787	43.071	369.99
41.792	41.919	29.14
41.940	42.195	659.26
42.084	42.223	29.14
42.121	42.307	739.99
42.242	42.539	783.99
42.377	42.474	29.14
42.405	42.635	880.00
42.549	42.692	739.99
42.690	42.951	659.26
42.705	42.818	29.14
42.848	43.021	587.33
42.965	43.098	29.14
42.991	43.271	554.37
42.999	44.234	392.00
43.151	43.431	587.33
43.293	43.552	659.26
43.418	43.485	29.14
43.438	43.732	739.99
43.587	43.657	29.14
43.595	43.808	783.99
43.737	44.005	659.26
43.891	43.982	29.14
43.896	44.167	587.33
44.036	44.310	554.37
44.163	44.317	29.14
44.180	44.478	587.33
44.189	45.506	369.99
44.338	44.588	659.26
44.492	44.671	29.14
44.500	44.699	739.99
44.640	44.948	783.99
44.776	44.871	29.14
44.802	45.031	880.00
44.963	45.084	739.99
45.093	45.210	29.14
45.099	45.348	659.26
45.243	45.770	587.33
45.371	45.496	29.14
45.384	45.673	554.37
45.400	46.606	392.00
45.701	45.947	659.26
45.841	46.131	739.99
45.985	46.060	29.14
46.005	46.214	783.99
46.139	46.407	659.26
46.292	46.383	29.14
46.306	47.155	587.33
46.437	46.704	554.37
46.561	46.739	29.14
46.588	47.200	369.99
47.124	47.375	1108.73
47.146	47.299	29.14
47.179	47.780	1174.66
47.751	47.959	29.14
47.778	48.594	146.83
47.797	48.556	73.42
47.821	48.070	1108.73
47.882	47.961	220.00
48.961	49.147	29.14
48.983	49.703	293.66
48.990	49.475	698.46
48.992	49.690	233.08
49.440	49.587	587.33
49.512	49.715	622.25
49.599	49.927	698.46
49.881	50.334	293.66
49.888	50.308	233.08
50.186	51.382	311.13
50.207	51.078	261.63
50.488	51.478	440.00
51.065	51.157	29.14
51.112	51.176	523.25
51.153	51.378	261.63
51.365	51.484	29.14
51.391	52.091	293.66
51.394	52.056	466.16
51.396	51.985	349.23
51.930	52.155	523.25
51.986	52.072	174.61
51.994	52.329	587.33
52.282	52.733	293.66
52.295	52.703	233.08
52.575	52.675	29.14
52.597	53.789	261.63
52.604	53.219	220.00
52.883	53.926	369.99
53.238	53.455	220.00
53.456	53.575	29.14
53.504	53.776	220.00
53.519	53.589	523.25
53.753	53.905	29.14
53.788	54.525	293.66
53.794	54.391	392.00
53.808	54.470	233.08
54.322	54.528	440.00
54.390	54.742	466.16
54.679	54.763	29.14
54.692	55.128	233.08
54.694	56.230	196.00
54.990	55.044	116.54
54.994	55.872	155.56
55.276	55.396	29.14
55.279	56.364	277.18
55.840	56.909	29.14
55.883	56.207	155.56
55.988	56.158	466.16
56.172	56.870	293.66
56.196	56.743	146.83
56.203	56.812	185.00
56.275	56.490	587.33
56.638	56.925	92.50
56.705	56.992	98.00
56.733	56.937	196.00
56.760	56.821	138.59
56.762	57.265	220.00
56.796	57.213	110.00
56.807	56.854	1108.73
56.872	57.110	880.00
56.894	56.955	587.33
57.052	57.210	29.14
57.079	57.599	92.50
57.086	57.477	185.00
57.086	57.134	174.61
57.201	57.249	659.26
57.354	57.560	29.14
57.382	58.189	146.83
57.405	58.125	73.42
58.561	58.680	29.14
58.595	59.082	392.00
58.595	59.151	196.00
58.615	59.172	246.94
58.897	58.955	29.14
59.056	59.242	493.88
59.115	59.346	440.00
59.158	59.274	29.14
59.183	59.505	392.00
59.187	61.037	196.00
59.210	61.074	246.94
59.500	59.554	29.14
59.803	59.853	29.14
60.059	60.226	29.14
60.079	60.548	293.66
60.364	60.475	29.14
60.403	60.709	392.00
60.662	60.791	29.14
60.706	61.140	493.88
60.732	60.779	587.33