0.987	1.281	783.99
1.138	1.415	698.46
1.288	1.552	622.25
1.440	1.696	587.33
1.587	2.036	523.25
1.882	3.096	466.16
1.892	3.059	233.08
2.192	4.086	293.66
2.489	3.077	349.23
3.098	3.406	587.33
3.103	3.670	233.08
3.174	3.356	349.23
3.391	3.709	783.99
3.689	3.989	392.00
3.703	3.988	587.33
3.795	3.983	233.08
4.000	4.626	698.46
4.303	4.882	261.63
4.586	5.074	622.25
4.592	6.256	311.13
4.899	5.387	392.00
4.966	5.056	261.63
5.489	5.541	29.14
5.490	6.068	698.46
5.501	5.807	261.63
5.652	5.927	783.99
5.952	6.192	622.25
6.092	6.343	587.33
6.111	6.383	392.00
6.240	6.538	523.25
6.261	6.364	311.13
6.388	7.110	466.16
6.695	7.118	174.61
7.000	7.573	440.00
7.020	7.940	261.63
7.290	7.861	311.13
7.874	8.257	440.00
7.904	8.170	174.61
7.986	8.076	261.63
7.999	8.132	311.13
8.023	8.232	349.23
8.172	8.240	29.14
8.184	8.629	466.16
8.196	8.510	261.63
8.217	8.775	174.61
8.508	9.504	523.25
8.511	8.774	261.63
8.526	8.791	311.13
8.807	9.331	440.00
9.100	9.514	233.08
9.380	9.469	29.14
9.389	9.970	587.33
9.397	10.428	293.66
9.411	10.070	466.16
9.686	10.322	349.23
9.974	10.056	587.33
10.289	11.181	233.08
10.297	10.551	698.46
10.438	10.704	659.26
10.583	10.680	29.14
10.583	11.257	293.66
10.590	10.891	783.99
10.739	10.904	698.46
10.887	11.162	622.25
10.890	11.235	349.23
11.040	11.594	587.33
11.185	12.065	311.13
11.488	12.135	523.25
11.505	12.066	392.00
11.784	12.408	293.66
12.085	12.521	466.16
12.093	12.199	174.61
12.113	12.454	349.23
12.178	12.352	311.13
12.379	12.461	29.14
12.387	12.787	587.33
12.403	13.272	311.13
12.687	13.239	523.25
12.711	13.280	392.00
13.004	13.293	261.63
13.293	13.670	440.00
13.333	13.573	311.13
13.350	13.575	261.63
13.564	13.679	29.14
13.590	14.307	293.66
13.592	14.486	466.16
13.614	14.264	349.23
13.754	14.015	523.25
14.058	14.312	440.00
14.338	14.644	523.25
14.485	14.763	587.33
14.639	14.899	622.25
14.790	15.364	659.26
14.936	15.828	698.46
15.387	15.696	783.99
15.685	15.966	622.25
15.838	16.414	587.33
15.985	16.747	311.13
16.009	16.070	29.14
16.291	17.030	523.25
16.304	16.591	392.00
16.590	17.322	293.66
16.630	16.709	392.00
16.882	17.315	466.16
16.909	17.318	349.23
17.185	17.906	311.13
17.193	17.585	587.33
17.492	18.214	523.25
17.503	17.862	392.00
17.785	17.847	29.14
17.804	18.380	261.63
18.098	18.393	440.00
18.108	18.376	311.13
18.365	18.486	29.14
18.390	19.101	293.66
18.393	18.825	466.16
18.401	19.069	349.23
18.701	18.983	523.25
18.838	19.090	587.33
18.986	19.262	622.25
19.144	19.418	698.46
19.288	19.590	783.99
19.443	19.705	880.00
19.586	19.783	932.33
19.747	20.029	1046.50
19.892	20.150	1174.66
20.039	20.115	29.14
20.050	20.294	1244.51
20.182	20.266	29.14
20.198	20.394	1396.91
20.497	20.691	1396.91
20.764	20.997	29.14
20.785	21.378	698.46
20.788	21.518	220.00
20.810	20.890	1396.91
20.841	21.030	880.00
21.094	21.237	29.14
21.095	21.451	1244.51
21.385	22.144	233.08
21.698	22.360	1174.66
21.961	22.123	29.14
21.987	22.697	155.56
22.037	22.195	783.99
22.294	22.449	29.14
22.301	22.561	1046.50
22.302	22.498	622.25
22.564	22.764	29.14
22.591	22.867	587.33
22.594	23.310	174.61
22.603	22.784	932.33
22.670	22.733	698.46
22.883	22.930	466.16
22.902	22.971	29.14
22.904	23.138	880.00
22.905	23.180	523.25
23.174	23.362	29.14
23.184	23.574	587.33
23.185	23.492	932.33
23.463	23.563	29.14
23.486	23.782	116.54
23.781	24.096	146.83
23.788	24.234	466.16
23.793	23.873	29.14
23.832	23.985	587.33
24.086	24.381	174.61
24.381	25.114	233.08
24.990	25.236	392.00
25.132	25.427	349.23
25.282	25.580	311.13
25.433	25.750	293.66
25.460	25.564	587.33
25.589	26.048	261.63
25.881	25.961	29.14
25.885	27.254	233.08
25.910	26.841	116.54
26.207	28.037	146.83
26.500	27.089	174.61
26.864	27.022	116.54
27.081	27.452	466.16
27.100	27.683	116.54
27.179	27.369	174.61
27.410	27.721	440.00
27.452	27.649	174.61
27.693	28.077	392.00
27.704	28.079	174.61
27.714	28.008	116.54
27.989	28.039	293.66
27.991	28.703	349.23
28.296	28.602	130.81
28.595	29.168	329.63
28.596	29.348	196.00
28.630	28.883	130.81
28.892	29.306	233.08
29.349	29.572	392.00
29.480	29.780	349.23
29.506	29.811	130.81
29.641	29.891	440.00
29.790	30.422	196.00
29.802	29.968	392.00
29.833	29.929	130.81
29.928	30.134	466.16
30.073	30.174	32.70
30.099	30.469	233.08
30.104	30.361	440.00
30.243	30.525	523.25
30.388	30.664	466.16
30.539	30.798	392.00
30.690	30.921	659.26
30.718	30.987	164.81
30.844	31.128	523.25
30.983	32.849	196.00
30.987	31.289	783.99
31.018	31.182	164.81
31.146	31.367	659.26
31.283	31.375	29.14
31.288	31.722	261.63
31.289	31.475	932.33
31.425	31.500	29.14
31.442	32.019	880.00
31.573	31.766	29.14
31.583	31.790	932.33
31.889	32.176	783.99
31.890	31.962	29.14
31.892	32.487	164.81
32.033	32.327	698.46
32.189	32.281	29.14
32.194	32.446	659.26
32.329	32.398	29.14
32.346	32.628	587.33
32.473	32.563	493.88
32.483	32.916	261.63
32.494	32.816	523.25
32.545	32.620	164.81
32.632	33.079	466.16
32.952	33.218	440.00
33.081	33.362	587.33
33.094	33.524	174.61
33.256	33.770	523.25
33.394	34.910	220.00
33.701	34.303	261.63
33.857	34.013	523.25
34.293	34.654	174.61
34.598	34.856	1174.66
34.748	34.983	1046.50
34.862	34.981	29.14
34.888	35.090	932.33
34.930	35.056	523.25
34.934	35.235	261.63
35.049	35.319	880.00
35.176	35.264	29.14
35.190	35.876	783.99
35.192	36.493	233.08
35.503	36.516	261.63
36.092	36.417	659.26
36.389	37.721	220.00
36.396	36.616	698.46
36.541	36.797	1046.50
36.657	36.805	29.14
36.696	37.163	261.63
36.698	36.946	987.77
36.726	36.975	523.25
36.823	36.890	29.14
36.840	37.090	1046.50
36.965	37.116	29.14
37.000	37.256	1174.66
37.118	37.399	29.14
37.132	37.374	1046.50
37.164	37.780	261.63
37.287	37.481	932.33
37.381	37.447	523.25
37.442	37.702	880.00
37.566	37.678	29.14
37.599	38.830	233.08
37.601	38.534	783.99
37.907	38.882	261.63
38.491	38.813	659.26
38.787	39.994	220.00
38.792	39.011	698.46
38.951	39.166	1046.50
39.064	39.183	29.14
39.091	39.347	987.77
39.094	40.142	261.63
39.124	39.477	523.25
39.231	39.302	29.14
39.251	39.482	1046.50
39.355	39.624	29.14
39.393	39.664	1174.66
39.541	39.785	1046.50
39.625	39.798	29.14
39.694	39.878	932.33
39.744	39.883	523.25
39.843	40.360	880.00
39.971	40.062	29.14
39.991	41.024	233.08
40.278	40.733	293.66
40.282	40.376	29.14
40.288	40.737	783.99
40.879	41.326	293.66
40.887	41.643	783.99
40.889	40.961	29.14
41.167	41.282	29.14
41.187	42.228	246.94
41.483	41.913	698.46
41.485	41.918	293.66
41.505	41.690	587.33
41.509	41.647	29.14
42.085	42.533	293.66
42.086	42.521	698.46
42.109	42.326	587.33
42.124	42.238	29.14
42.389	42.964	659.26
42.390	43.157	261.63
42.404	42.650	29.14
42.528	42.828	698.46
42.687	42.745	29.14
42.851	43.110	523.25
42.958	43.208	29.14
42.981	43.715	293.66
42.990	43.570	698.46
43.011	43.421	587.33
43.134	43.433	783.99
43.439	43.609	523.25
43.558	43.688	29.14
43.572	43.633	349.23
43.593	44.184	783.99
43.594	44.047	329.63
43.597	43.669	261.63
43.631	43.728	523.25
43.675	43.736	659.26
43.737	44.014	880.00
44.041	44.209	523.25
44.077	44.179	329.63
44.154	44.559	29.14
44.178	44.279	174.61
44.198	44.799	880.00
44.216	44.787	349.23
44.251	44.317	523.25
44.338	44.529	932.33
44.628	44.725	174.61
44.660	44.949	523.25
44.740	44.943	29.14
44.780	44.856	174.61
44.788	45.001	932.33
44.797	45.199	392.00
44.893	44.996	783.99
45.062	45.244	29.14
45.081	45.299	932.33
45.092	45.524	523.25
45.382	45.432	349.23
45.385	45.743	329.63
45.674	45.775	29.14
45.685	46.007	783.99
45.707	46.001	523.25
45.977	46.137	29.14
45.987	46.316	932.33
46.004	46.297	349.23
46.021	46.117	523.25
46.269	46.387	29.14
46.284	46.428	174.61
46.289	46.568	880.00
46.332	46.709	523.25
46.567	46.687	29.14
46.578	47.031	293.66
46.590	46.892	783.99
46.612	46.860	587.33
46.891	47.220	698.46
46.908	47.204	523.25
46.913	46.968	29.14
47.183	47.392	29.14
47.191	47.928	261.63
47.192	47.477	659.26
47.218	47.271	783.99
47.347	47.660	523.25
47.495	47.753	987.77
47.496	48.001	29.14
47.656	47.911	1046.50
47.782	48.518	293.66
47.784	47.870	523.25
47.794	48.084	698.46
47.798	48.083	587.33
47.923	48.255	523.25
48.080	48.162	29.14
48.096	48.349	987.77
48.123	48.219	587.33
48.239	48.502	29.14
48.239	48.519	1046.50
48.390	48.993	329.63
48.394	48.726	783.99
48.475	48.681	659.26
48.532	48.857	523.25
48.538	48.607	29.14
48.674	48.770	29.14
48.703	48.919	987.77
48.842	49.029	1046.50
48.851	49.244	29.14
48.980	49.716	349.23
48.990	49.295	880.00
49.005	49.057	73.42
49.135	49.452	523.25
49.264	49.378	29.14
49.290	49.558	987.77
49.446	49.726	1046.50
49.453	49.792	29.14
49.586	49.798	932.33
49.593	49.867	392.00
49.733	50.026	523.25
49.855	50.065	29.14
49.877	50.090	932.33
49.888	50.171	493.88
50.029	50.614	523.25
50.189	50.460	329.63
50.474	50.556	29.14
50.492	50.727	880.00
50.497	50.851	493.88
50.561	50.950	783.99
50.639	50.884	739.99
50.643	50.708	29.14
50.646	50.795	523.25
50.763	50.930	29.14
50.780	50.852	174.61
50.792	51.086	932.33
50.793	51.073	349.23
50.795	50.888	261.63
50.954	51.235	523.25
51.064	51.192	29.14
51.095	51.361	493.88
51.095	51.374	880.00
51.235	51.517	523.25
51.360	51.489	29.14
51.378	51.676	293.66
51.396	51.692	783.99
51.414	51.591	587.33
51.534	52.120	493.88
51.693	52.015	698.46
51.720	51.935	440.00
51.959	52.242	29.14
51.995	52.271	659.26
51.998	52.423	523.25
51.999	52.743	261.63
52.163	52.359	1046.50
52.301	52.584	783.99
52.436	52.713	659.26
52.595	52.861	523.25
52.729	52.989	392.00
52.791	53.228	261.63
52.878	52.934	349.23
52.879	53.163	329.63
52.920	53.015	783.99
53.034	53.362	29.14
53.092	53.171	783.99
53.178	53.321	130.81
53.185	53.687	65.41
53.207	53.333	523.25
53.211	53.322	196.00
53.324	53.373	783.99
53.330	53.604	130.81
53.370	53.590	196.00
53.393	53.467	392.00
53.419	53.593	466.16
54.347	54.753	29.14
54.389	55.665	174.61
54.392	55.462	261.63
54.392	54.443	69.30
54.401	54.476	349.23
54.406	54.911	440.00
54.414	55.697	87.31
54.622	54.729	698.46
55.017	55.150	440.00
55.288	55.517	587.33
55.455	55.726	523.25
55.580	55.902	466.16
55.899	56.146	440.00
56.193	56.434	392.00
56.482	57.229	349.23
57.085	58.152	587.33
57.342	57.609	29.14
57.387	58.713	116.54
57.388	58.038	233.08
57.396	57.811	349.23
57.637	57.854	698.46
58.090	58.259	233.08
58.162	58.302	587.33
58.276	58.463	233.08
58.287	58.713	523.25
58.498	58.620	233.08
58.591	59.183	220.00
58.596	58.798	659.26
58.888	59.594	698.46
59.179	59.281	29.14
59.190	59.886	293.66
59.197	59.871	246.94
59.489	60.138	392.00
59.799	60.477	261.63
60.096	60.399	440.00
60.366	60.509	29.14
60.385	60.793	698.46
60.394	61.084	293.66
60.398	61.080	246.94
60.407	60.495	587.33
60.686	61.063	392.00