0.982	3.046	130.81
0.996	1.906	65.41
1.009	1.178	392.00
1.010	1.391	659.26
1.158	1.471	196.00
1.450	1.990	523.25
1.492	1.903	261.63
1.580	1.845	329.63
1.628	1.756	659.26
1.877	2.108	392.00
1.915	2.019	1567.98
1.928	2.365	65.41
1.974	2.038	783.99
2.021	2.299	523.25
2.192	2.462	659.26
2.317	2.610	523.25
2.388	2.774	65.41
2.492	2.751	783.99
2.635	2.850	1046.50
2.775	2.871	65.41
2.798	2.991	1318.51
2.931	3.147	1046.50
3.078	3.214	65.41
3.099	3.335	1567.98
3.216	3.303	65.41
3.245	3.391	2093.00
3.398	3.726	65.41
3.401	3.521	2637.02
3.541	3.709	2093.00
3.687	3.946	1567.98
3.842	4.053	1046.50
3.984	4.194	1318.51
4.133	4.350	1046.50
4.284	4.538	783.99
4.424	5.016	523.25
4.577	4.864	659.26
4.886	5.104	392.00
4.934	5.028	1567.98
5.029	5.303	261.63
5.136	5.191	523.25
5.176	5.449	329.63
5.212	5.398	659.26
5.332	5.437	523.25
5.334	5.611	261.63
5.450	5.532	523.25
5.500	5.741	196.00
5.630	5.795	130.81
5.791	7.467	87.31
5.816	5.912	261.63
5.860	6.265	43.65
5.911	7.307	130.81
6.094	6.145	440.00
6.096	6.381	220.00
6.234	6.769	261.63
6.308	6.504	440.00
6.347	6.620	43.65
6.374	6.428	329.63
6.395	6.659	349.23
6.433	6.774	220.00
6.513	6.606	523.25
6.652	6.702	523.25
6.663	7.028	440.00
6.835	7.099	523.25
6.960	7.130	43.65
6.984	7.258	698.46
7.124	7.401	523.25
7.275	7.337	43.65
7.279	7.551	880.00
7.337	7.396	130.81
7.388	7.630	43.65
7.441	7.651	1046.50
7.590	7.822	1396.91
7.731	7.952	1046.50
7.737	7.799	43.65
7.895	8.091	1760.00
8.045	8.185	2093.00
8.107	8.165	87.31
8.182	10.262	92.50
8.197	8.315	2637.02
8.200	8.267	1760.00
8.203	8.257	130.81
8.208	8.281	1479.98
8.250	9.222	46.25
8.347	8.493	2093.00
8.494	8.699	1760.00
8.633	8.851	1046.50
8.788	8.989	1318.51
8.933	9.145	1046.50
9.077	9.357	880.00
9.226	9.900	523.25
9.379	9.668	659.26
9.687	9.976	440.00
9.833	10.102	261.63
9.919	10.051	523.25
9.970	10.266	293.66
9.995	10.273	587.33
10.121	10.391	261.63
10.122	10.380	523.25
10.295	10.556	220.00
10.421	10.704	130.81
10.445	10.628	92.50
10.476	10.533	440.00
10.603	11.466	98.00
10.605	10.678	1479.98
10.613	10.889	146.83
10.617	10.717	1567.98
10.624	11.179	49.00
10.722	12.375	123.47
10.757	11.343	369.99
10.897	11.284	196.00
10.911	10.989	146.83
10.922	10.996	783.99
11.041	11.590	493.88
11.086	11.158	739.99
11.087	11.181	783.99
11.170	11.265	146.83
11.202	11.440	293.66
11.203	11.389	587.33
11.239	11.322	49.00
11.326	11.504	196.00
11.327	11.511	246.94
11.387	11.621	49.00
11.409	11.462	739.99
11.502	11.672	392.00
11.529	11.601	1567.98
11.563	11.748	783.99
11.624	12.211	493.88
11.767	11.856	196.00
11.786	12.827	92.50
11.787	12.027	587.33
11.798	11.875	98.00
11.803	11.854	77.78
11.807	11.867	130.81
11.902	12.456	46.25
11.911	12.168	196.00
12.086	12.328	783.99
12.219	12.284	196.00
12.248	12.431	987.77
12.366	12.508	98.00
12.368	12.456	77.78
12.386	13.119	82.41
12.388	12.605	1174.66
12.433	13.112	123.47
12.456	12.504	207.65
12.550	12.730	987.77
12.690	12.916	1567.98
12.806	12.885	46.25
12.830	12.971	92.50
12.852	13.039	1760.00
12.971	13.042	69.30
12.986	14.407	146.83
12.987	13.044	110.00
12.991	13.114	2349.32
13.004	13.562	73.42
13.015	13.432	739.99
13.023	13.131	103.83
13.051	14.021	36.71
13.088	13.263	523.25
13.133	13.438	1760.00
13.293	13.493	1479.98
13.440	13.535	739.99
13.441	13.630	1046.50
13.484	13.710	523.25
13.578	13.659	73.42
13.594	13.821	1174.66
13.734	13.985	880.00
13.894	14.142	739.99
14.020	14.306	523.25
14.191	14.460	587.33
14.236	14.301	73.42
14.337	14.616	440.00
14.468	14.771	369.99
14.538	14.618	73.42
14.628	14.902	261.63
14.785	15.078	293.66
14.793	14.959	587.33
14.836	14.985	73.42
14.942	15.264	220.00
15.088	15.319	185.00
15.210	15.293	440.00
15.224	17.025	130.81
15.389	15.822	98.00
15.406	15.490	1479.98
15.406	15.511	1567.98
15.427	15.802	146.83
15.428	16.143	49.00
15.688	16.832	174.61
15.706	15.787	349.23
15.816	15.878	196.00
15.845	16.846	207.65
15.966	16.089	98.00
15.972	16.088	146.83
15.986	16.248	293.66
16.005	16.254	587.33
16.118	16.224	146.83
16.118	16.243	98.00
16.148	16.197	523.25
16.150	16.363	261.63
16.202	16.458	49.00
16.287	16.514	349.23
16.449	16.618	415.30
16.488	16.608	49.00
16.590	16.853	587.33
16.594	16.665	830.61
16.619	16.726	49.00
16.730	17.015	523.25
16.783	16.882	49.00
16.892	17.145	698.46
17.034	17.304	830.61
17.194	17.403	1174.66
17.336	17.549	1046.50
17.494	17.722	1396.91
17.641	17.870	1661.22
17.797	17.925	2349.32
17.935	18.175	1567.98
18.097	18.325	1396.91
18.233	18.441	987.77
18.387	18.613	1174.66
18.540	18.806	783.99
18.687	18.947	698.46
18.827	19.122	493.88
18.980	19.273	587.33
19.142	19.338	392.00
19.167	19.348	783.99
19.284	19.564	349.23
19.431	19.677	246.94
19.437	19.602	493.88
19.473	19.565	739.99
19.576	19.852	311.13
19.608	19.851	622.25
19.622	19.682	493.88
19.632	19.712	1244.51
19.745	20.088	196.00
19.885	20.132	174.61
20.020	20.285	123.47
20.072	20.264	369.99
20.187	22.082	130.81
20.196	21.102	65.41
20.208	20.382	392.00
20.212	20.589	659.26
20.236	20.341	196.00
20.363	20.673	196.00
20.652	21.189	523.25
20.695	21.103	261.63
20.782	21.027	329.63
20.827	20.957	659.26
21.077	21.308	392.00
21.118	21.219	1567.98
21.138	21.562	65.41
21.170	21.238	783.99
21.221	21.499	523.25
21.390	21.655	659.26
21.520	21.808	523.25
21.592	21.741	65.41
21.689	21.951	783.99
21.768	22.033	65.41
21.838	22.053	1046.50
21.999	22.183	1318.51
22.099	22.182	130.81
22.130	22.346	1046.50
22.255	22.396	65.41
22.296	22.536	1567.98
22.423	22.503	65.41
22.441	22.590	2093.00
22.600	22.920	65.41
22.604	22.713	2637.02
22.739	22.908	2093.00
22.888	23.147	1567.98
23.042	23.251	1046.50
23.185	23.390	1318.51
23.334	23.552	1046.50
23.487	23.738	783.99
23.626	24.217	523.25
23.777	24.064	659.26
24.088	24.304	392.00
24.136	24.228	1567.98
24.230	24.503	261.63
24.338	24.396	523.25
24.376	24.641	329.63
24.415	24.606	659.26
24.529	24.626	523.25
24.534	24.809	261.63
24.658	24.729	523.25
24.699	24.881	196.00
24.828	26.846	130.81
24.966	26.478	110.00
25.002	25.270	554.37
25.009	25.168	1661.22
25.030	25.573	55.00
25.292	26.388	174.61
25.459	25.972	261.63
25.593	25.808	349.23
25.736	25.812	523.25
25.898	26.110	349.23
26.039	26.319	523.25
26.195	26.438	698.46
26.320	26.607	523.25
26.390	26.477	174.61
26.484	26.746	698.46
26.644	26.845	1046.50
26.789	27.024	1396.91
26.933	27.148	1046.50
27.081	27.334	1396.91
27.243	27.390	2093.00
27.393	27.517	2637.02
27.541	27.702	2093.00
27.689	27.914	1479.98
27.835	28.048	1046.50
27.991	28.198	1318.51
28.131	28.348	1046.50
28.284	28.551	739.99
28.428	29.087	523.25
28.579	28.864	659.26
28.877	29.180	369.99
28.942	29.016	1108.73
29.032	29.598	261.63
29.180	29.459	329.63
29.220	29.385	659.26
29.337	29.421	523.25
29.487	29.720	185.00
29.539	29.617	369.99
29.619	29.916	130.81
29.806	30.244	98.00
29.813	30.048	146.83
29.823	29.884	1567.98
29.836	30.382	49.00
29.920	31.444	130.81
30.077	31.323	196.00
30.107	30.215	146.83
30.243	30.635	261.63
30.292	30.648	98.00
30.371	30.497	146.83
30.403	30.617	293.66
30.442	30.522	49.00
30.476	30.569	587.33
30.501	30.589	146.83
30.541	30.787	523.25
30.615	30.707	49.00
30.707	30.889	392.00
30.820	31.103	523.25
30.917	30.965	49.00
30.987	31.232	587.33
31.104	31.417	523.25
31.288	31.557	783.99
31.450	31.656	1046.50
31.520	31.572	130.81
31.591	31.790	1174.66
31.737	31.946	1046.50
31.892	32.129	1567.98
32.053	32.193	2093.00
32.194	32.321	2349.32
32.349	32.502	1975.53
32.480	32.742	1567.98
32.632	32.837	987.77
32.790	33.000	1174.66
32.927	33.152	987.77
33.082	33.359	783.99
33.228	33.813	493.88
33.382	33.659	587.33
33.690	33.895	392.00
33.794	33.884	783.99
33.830	34.098	246.94
33.889	33.982	739.99
33.948	34.068	493.88
33.976	34.245	293.66
34.004	34.236	587.33
34.103	34.390	246.94
34.140	34.409	493.88
34.284	34.545	196.00
34.307	34.388	783.99
34.424	34.682	123.47
34.492	34.577	369.99
34.587	34.912	130.81
34.599	35.479	65.41
34.608	34.794	392.00
34.610	34.767	659.26
34.748	35.514	146.83
34.777	34.905	659.26
34.844	35.647	196.00
35.038	35.587	293.66
35.178	35.417	329.63
35.235	35.364	659.26
35.507	35.734	392.00
35.561	35.644	783.99
35.598	36.102	65.41
35.652	35.869	587.33
35.682	35.952	196.00
35.780	36.052	659.26
35.929	36.005	130.81
35.941	36.182	587.33
35.976	36.132	196.00
36.094	36.329	783.99
36.188	36.445	65.41
36.255	36.418	1174.66
36.397	36.570	1318.51
36.516	36.591	65.41
36.538	36.725	1174.66
36.698	36.931	1567.98
36.811	36.932	65.41
36.843	36.964	2349.32
37.001	37.099	2637.02
37.010	37.078	65.41
37.117	37.258	65.41
37.147	37.280	2093.00
37.287	37.534	1567.98
37.441	37.637	1046.50
37.589	37.780	1318.51
37.735	37.940	1046.50
37.883	38.147	783.99
38.029	38.604	523.25
38.180	38.447	659.26
38.488	38.705	392.00
38.625	38.904	261.63
38.781	39.025	329.63
38.843	38.968	659.26
38.930	39.203	261.63
38.946	39.006	523.25
39.090	39.422	196.00
39.241	39.461	130.81
39.375	40.794	110.00
39.425	39.566	55.00
39.547	39.704	164.81
39.606	39.682	55.00
39.691	40.439	261.63
39.725	39.852	164.81
39.857	39.910	329.63
39.994	40.233	349.23
40.159	40.259	329.63
40.269	40.325	164.81
40.298	40.487	523.25
40.441	40.640	659.26
40.590	40.822	698.46
40.739	40.942	659.26
40.901	41.065	1046.50
41.055	41.113	1318.51
41.195	41.380	1396.91
41.352	41.433	1318.51
41.505	41.576	2093.00
41.773	42.234	123.47
41.802	42.995	61.74
41.806	42.092	369.99
42.104	42.163	1975.53
42.122	42.737	369.99
42.249	42.362	1174.66
42.391	42.581	1396.91
42.547	42.658	1174.66
42.687	42.858	987.77
42.841	43.070	587.33
42.978	44.238	110.00
42.991	43.223	698.46
43.093	43.167	61.74
43.140	43.371	587.33
43.151	43.598	55.00
43.293	43.497	493.88
43.321	43.421	164.81
43.431	43.669	293.66
43.456	43.649	587.33
43.495	43.550	164.81
43.592	43.841	349.23
43.731	43.990	293.66
43.896	44.066	246.94
44.048	44.256	146.83
44.176	45.694	103.83
44.188	44.246	98.00
44.240	44.627	51.91
44.321	44.789	146.83
44.489	45.274	246.94
44.570	44.626	493.88
44.640	44.877	293.66
44.680	44.819	51.91
44.704	44.928	587.33
44.802	45.003	329.63
44.825	44.956	659.26
44.849	44.930	146.83
44.899	45.156	293.66
45.057	45.137	587.33
45.085	45.316	493.88
45.237	45.466	587.33
45.383	45.630	659.26
45.539	45.767	587.33
45.693	45.868	987.77
45.848	45.952	1174.66
45.997	46.145	1318.51
46.146	46.258	1174.66
46.307	46.375	1975.53
46.451	46.514	2349.32
46.578	47.957	110.00
46.643	47.415	55.00
46.753	46.813	2093.00
46.894	47.044	1760.00
47.041	47.232	1046.50
47.191	47.352	1318.51
47.340	47.508	1046.50
47.491	47.725	880.00
47.634	47.898	523.25
47.783	48.033	659.26
47.787	49.001	98.00
47.787	47.853	92.50
47.855	48.229	49.00
47.923	48.184	523.25
48.098	48.341	440.00
48.241	48.479	261.63
48.278	48.423	49.00
48.399	48.606	329.63
48.441	48.568	659.26
48.535	48.755	261.63
48.580	48.666	49.00
48.657	48.736	523.25
48.699	49.066	220.00
48.840	49.019	130.81
48.991	50.685	87.31
49.024	50.018	43.65
49.292	49.354	440.00
49.304	49.616	220.00
49.447	49.958	261.63
49.587	49.814	329.63
49.593	49.703	440.00
49.630	49.754	659.26
49.686	49.919	220.00
49.747	49.965	523.25
49.887	50.120	440.00
50.025	50.095	220.00
50.034	50.287	523.25
50.041	50.231	43.65
50.189	50.446	659.26
50.219	50.319	220.00
50.329	50.592	523.25
50.411	50.860	43.65
50.491	50.723	880.00
50.652	50.832	1046.50
50.778	50.923	87.31
50.793	50.969	1318.51
50.895	51.018	43.65
50.941	51.129	1046.50
51.028	51.178	87.31
51.051	51.152	43.65
51.095	51.283	1760.00
51.213	51.302	43.65
51.252	51.337	2093.00
51.380	51.525	87.31
51.397	51.536	2489.02
51.547	51.635	87.31
51.555	51.638	1975.53
51.692	51.848	1760.00
51.837	52.019	987.77
51.993	52.177	1244.51
52.136	52.327	987.77
52.283	52.514	880.00
52.434	52.687	493.88
52.582	52.835	622.25
52.732	52.967	493.88
52.884	53.134	440.00
53.047	53.254	246.94
53.190	53.412	311.13
53.230	53.354	622.25
53.331	53.645	246.94
53.453	53.570	493.88
53.507	53.701	220.00
53.619	53.692	493.88
53.626	54.139	123.47
53.789	55.286	82.41
54.089	54.141	440.00
54.111	54.709	220.00
54.114	54.451	369.99
54.252	54.364	246.94
54.414	54.562	329.63
54.457	55.786	123.47
54.538	54.725	493.88
54.685	54.966	440.00
54.855	55.024	493.88
54.996	55.210	659.26
55.145	55.354	493.88
55.298	55.490	880.00
55.445	55.613	987.77
55.600	55.728	1318.51
55.743	55.905	987.77
55.902	56.034	1760.00
56.204	56.255	2637.02
56.499	56.638	1661.22
56.645	56.812	987.77
56.795	56.937	1318.51
56.943	57.097	987.77
57.088	57.300	830.61
57.244	57.468	493.88
57.388	57.619	659.26
57.537	57.762	493.88
57.706	57.803	415.30
57.837	58.036	246.94
58.004	58.179	329.63
58.140	58.268	246.94
58.245	58.346	493.88
58.293	58.600	207.65
58.429	58.681	123.47
58.580	59.975	110.00
58.642	58.761	55.00
58.749	59.039	164.81
58.797	58.867	55.00
58.908	59.164	220.00
58.959	59.026	55.00
59.034	59.635	277.18
59.166	59.267	440.00
59.191	59.347	392.00
59.247	59.316	554.37
59.270	59.430	440.00
59.361	59.459	329.63
59.471	59.783	440.00
59.639	59.888	554.37
59.787	60.015	783.99
59.942	60.134	659.26
60.091	60.299	880.00
60.249	60.345	1108.73
60.395	60.579	1567.98
60.546	60.657	1108.73
60.685	60.911	880.00
60.847	61.044	659.26