0.996	1.366	392.00
1.029	1.242	196.00
1.053	1.148	246.94
1.368	1.466	246.94
1.530	1.601	440.00
1.605	1.919	196.00
1.610	2.221	246.94
1.611	1.962	392.00
1.965	2.506	196.00
1.975	2.048	185.00
2.260	2.488	246.94
2.482	2.866	293.66
2.569	2.799	246.94
2.630	2.821	196.00
2.819	2.948	392.00
2.825	2.932	246.94
2.893	3.138	196.00
2.964	3.176	246.94
3.101	3.222	493.88
3.119	3.246	185.00
3.179	3.477	196.00
3.212	3.367	246.94
3.275	3.335	493.88
3.397	3.559	261.63
3.454	3.663	493.88
3.545	3.692	440.00
3.563	3.685	196.00
3.704	3.926	392.00
3.765	3.871	196.00
3.848	4.015	440.00
4.010	4.308	392.00
4.070	4.424	196.00
4.083	4.164	185.00
4.288	4.614	587.33
4.610	4.776	349.23
4.639	4.730	392.00
4.646	4.868	587.33
4.889	5.136	587.33
4.908	5.095	349.23
4.921	5.064	392.00
5.196	5.438	587.33
5.197	5.394	349.23
5.231	5.361	392.00
5.497	5.741	587.33
5.503	5.694	349.23
5.539	5.661	392.00
5.790	6.225	587.33
5.796	6.429	329.63
5.801	6.097	392.00
6.267	6.348	659.26
6.334	6.417	587.33
6.395	6.654	523.25
6.549	6.650	329.63
6.699	6.980	293.66
6.720	6.868	493.88
6.738	6.964	349.23
6.988	7.620	329.63
7.002	7.322	440.00
7.014	7.292	261.63
7.299	7.843	880.00
7.582	7.686	261.63
7.589	8.289	277.18
7.901	8.438	783.99
8.193	8.491	293.66
8.331	8.587	739.99
8.496	8.706	659.26
8.529	8.847	293.66
8.649	9.695	587.33
9.547	9.746	659.26
9.689	9.933	523.25
9.838	9.971	587.33
10.000	10.193	493.88
10.145	10.374	523.25
10.293	10.470	440.00
10.455	10.594	493.88
10.599	10.979	392.00
10.633	10.852	196.00
10.641	10.787	246.94
11.133	11.204	440.00
11.210	11.415	246.94
11.212	11.513	196.00
11.225	11.530	392.00
11.565	12.145	196.00
11.585	11.649	185.00
11.920	12.095	246.94
12.084	12.461	293.66
12.166	12.426	196.00
12.411	12.552	392.00
12.445	13.435	196.00
12.712	12.784	493.88
12.780	12.847	185.00
13.004	13.158	261.63
13.063	13.192	493.88
13.146	13.293	440.00
13.315	13.512	392.00
13.444	13.621	440.00
13.449	13.503	415.30
13.617	13.756	392.00
13.658	13.753	185.00
13.676	14.094	196.00
13.762	13.938	392.00
13.894	14.168	659.26
14.269	14.447	659.26
14.498	14.736	659.26
14.536	14.654	392.00
14.801	15.043	659.26
14.827	14.931	392.00
15.091	15.304	659.26
15.122	15.240	392.00
15.404	15.545	493.88
15.405	15.774	659.26
15.446	15.512	392.00
15.771	15.947	493.88
15.793	15.904	659.26
15.805	15.989	392.00
15.932	16.040	880.00
16.049	16.546	392.00
16.062	16.323	493.88
16.377	16.527	493.88
16.527	16.636	659.26
16.583	17.062	587.33
16.603	17.289	220.00
16.643	16.854	369.99
16.752	16.823	1174.66
16.986	17.312	369.99
17.152	17.226	587.33
17.192	17.591	329.63
17.248	17.362	587.33
17.289	17.457	554.37
17.385	17.569	587.33
17.484	17.619	554.37
17.490	17.798	220.00
17.624	17.768	329.63
17.631	17.708	493.88
17.683	17.754	554.37
17.797	17.885	587.33
17.803	18.081	293.66
17.955	18.157	659.26
18.106	18.285	739.99
18.122	19.584	293.66
18.209	18.808	369.99
18.405	18.500	880.00
18.564	18.632	739.99
18.702	18.909	659.26
18.866	18.918	587.33
19.003	19.201	554.37
19.031	19.105	392.00
19.151	19.243	587.33
19.302	19.505	659.26
19.456	19.665	739.99
19.677	19.874	392.00
19.686	19.904	293.66
19.754	19.931	659.26
19.903	20.004	587.33
19.981	20.241	392.00
19.994	20.166	293.66
20.061	20.248	554.37
20.198	20.396	587.33
20.216	20.339	369.99
20.278	20.540	293.66
20.358	20.534	659.26
20.509	20.704	739.99
20.574	20.809	293.66
20.810	20.887	880.00
20.875	21.149	293.66
20.889	21.218	369.99
20.956	21.088	739.99
21.105	21.293	659.26
21.191	21.370	293.66
21.258	21.350	587.33
21.263	21.449	369.99
21.402	21.584	554.37
21.427	21.527	392.00
21.453	21.951	293.66
21.707	21.888	659.26
21.801	22.077	392.00
21.859	22.032	739.99
22.024	22.290	293.66
22.120	22.229	392.00
22.154	22.333	659.26
22.302	22.393	587.33
22.341	23.233	293.66
22.391	22.613	392.00
22.464	22.646	554.37
22.604	23.003	587.33
22.634	22.840	369.99
23.115	23.320	1108.73
23.115	23.209	1046.50
23.174	23.812	1174.66
23.787	24.658	146.83
23.789	23.870	220.00
23.807	24.532	73.42
23.810	23.874	880.00
23.843	24.464	138.59
23.875	23.942	932.33
24.021	24.115	880.00
24.995	25.380	392.00
25.034	25.112	196.00
25.113	25.237	196.00
25.442	25.507	392.00
25.474	25.535	493.88
25.529	25.591	440.00
25.593	25.932	196.00
25.612	25.961	392.00
25.621	25.947	246.94
25.958	26.538	196.00
25.985	26.054	185.00
26.017	26.235	246.94
26.283	26.350	185.00
26.361	26.471	246.94
26.482	26.858	293.66
26.575	26.646	185.00
26.585	27.375	196.00
26.815	27.038	392.00
26.867	27.082	246.94
27.104	27.202	493.88
27.135	27.359	246.94
27.399	27.552	261.63
27.462	27.589	493.88
27.519	27.615	196.00
27.545	27.692	440.00
27.711	27.942	392.00
27.843	28.002	440.00
27.848	27.901	415.30
28.013	28.378	392.00
28.071	28.428	196.00
28.078	28.162	185.00
28.292	28.614	587.33
28.612	28.776	349.23
28.640	28.740	392.00
28.650	28.833	587.33
28.896	29.134	587.33
28.908	29.097	349.23
28.920	29.079	392.00
29.190	29.427	587.33
29.194	29.392	349.23
29.218	29.382	392.00
29.490	29.729	587.33
29.500	29.694	349.23
29.519	29.682	392.00
29.790	30.223	587.33
29.795	30.426	329.63
29.802	30.065	392.00
30.271	30.354	659.26
30.336	30.429	587.33
30.395	30.663	523.25
30.438	30.669	329.63
30.705	30.995	293.66
30.719	30.876	493.88
30.729	30.968	349.23
30.996	31.605	329.63
30.999	31.291	440.00
31.006	31.285	261.63
31.289	31.852	880.00
31.563	31.687	261.63
31.589	32.296	277.18
31.902	32.432	783.99
32.193	32.847	293.66
32.274	32.599	739.99
32.495	32.721	659.26
32.657	32.838	587.33
32.849	33.637	587.33
33.549	33.757	659.26
33.690	33.952	523.25
33.839	33.968	587.33
33.999	34.184	493.88
34.142	34.380	523.25
34.294	34.482	440.00
34.454	34.587	493.88
34.596	34.982	392.00
34.603	34.658	185.00
34.629	34.850	196.00
34.652	34.706	246.94
34.991	35.054	196.00
35.043	35.103	392.00
35.133	35.195	440.00
35.169	35.512	196.00
35.213	35.500	392.00
35.219	35.330	246.94
35.566	36.089	196.00
35.573	35.666	246.94
35.574	35.648	185.00
35.867	35.942	185.00
36.083	36.451	293.66
36.093	36.144	277.18
36.159	36.445	196.00
36.179	36.758	246.94
36.420	36.526	392.00
36.469	36.542	185.00
36.497	36.946	196.00
36.709	36.901	493.88
36.992	37.141	196.00
37.003	37.148	261.63
37.058	37.187	493.88
37.144	37.320	440.00
37.303	37.543	392.00
37.446	37.656	440.00
37.609	37.932	392.00
37.672	38.029	196.00
37.676	37.750	185.00
37.896	38.177	659.26
38.268	38.446	659.26
38.503	38.732	659.26
38.510	38.651	392.00
38.801	39.038	659.26
38.830	38.945	392.00
39.093	39.315	659.26
39.123	39.250	392.00
39.402	39.536	493.88
39.403	39.742	659.26
39.439	39.552	392.00
39.777	39.932	493.88
39.802	39.924	392.00
39.813	39.901	659.26
39.937	40.025	880.00
40.011	40.169	493.88
40.380	40.541	493.88
40.389	40.564	392.00
40.527	40.669	659.26
40.597	41.051	587.33
40.599	41.280	220.00
40.644	40.855	369.99
40.762	40.813	1174.66
40.991	41.171	369.99
41.194	41.762	329.63
41.239	41.341	587.33
41.299	41.456	554.37
41.392	41.529	587.33
41.490	41.618	554.37
41.500	41.779	220.00
41.621	41.705	493.88
41.792	41.903	587.33
41.799	42.067	293.66
41.954	42.157	659.26
42.105	42.256	739.99
42.174	42.365	293.66
42.200	42.680	369.99
42.406	42.479	880.00
42.436	43.876	293.66
42.562	42.707	739.99
42.703	42.904	659.26
42.799	43.088	369.99
42.869	42.924	587.33
43.003	43.200	554.37
43.037	43.118	392.00
43.154	43.241	587.33
43.303	43.500	659.26
43.456	43.657	739.99
43.682	43.862	392.00
43.755	43.932	659.26
43.893	43.989	587.33
43.933	44.518	293.66
44.002	44.255	392.00
44.059	44.246	554.37
44.199	44.313	587.33
44.222	44.395	369.99
44.357	44.527	659.26
44.512	44.663	739.99
44.607	44.728	293.66
44.802	44.878	880.00
44.862	46.330	293.66
44.890	45.384	369.99
45.102	45.292	659.26
45.265	45.337	587.33
45.399	45.592	554.37
45.424	45.513	392.00
45.704	45.888	659.26
45.789	46.038	392.00
45.859	46.024	739.99
46.062	46.268	392.00
46.155	46.339	659.26
46.308	46.399	587.33
46.382	46.613	293.66
46.389	46.529	392.00
46.457	46.654	554.37
46.610	46.716	587.33
46.635	46.852	369.99
46.666	47.226	293.66
47.116	47.214	1046.50
47.117	47.317	1108.73
47.179	47.798	1174.66
47.774	48.472	138.59
47.780	48.649	146.83
47.796	47.858	220.00
47.798	47.848	87.31
47.804	48.525	73.42
47.874	47.948	932.33
48.007	48.123	880.00
48.997	49.146	698.46
48.997	49.652	293.66
49.002	49.623	233.08
49.523	49.647	622.25
49.590	49.816	698.46
49.823	49.902	698.46
49.892	50.230	233.08
49.892	50.255	293.66
50.188	51.386	311.13
50.232	50.340	261.63
50.497	50.626	440.00
50.863	51.110	440.00
51.157	51.444	440.00
51.394	52.032	293.66
51.408	51.602	466.16
51.418	51.750	349.23
51.755	51.925	466.16
51.926	52.037	523.25
52.000	52.280	587.33
52.287	52.637	293.66
52.305	52.605	233.08
52.602	52.863	261.63
52.604	53.211	220.00
52.908	53.209	369.99
53.281	53.514	369.99
53.563	53.907	220.00
53.588	53.880	369.99
53.616	53.709	261.63
53.789	54.449	293.66
53.802	54.443	233.08
53.810	54.124	392.00
53.811	53.859	277.18
54.333	54.442	440.00
54.406	54.769	466.16
54.688	55.054	233.08
55.013	55.302	155.56
55.053	55.345	196.00
55.064	55.139	185.00
55.290	56.299	277.18
55.345	55.629	196.00
55.644	55.700	155.56
55.941	56.047	146.83
55.954	56.179	155.56
55.955	56.038	185.00
55.964	56.041	138.59
55.967	56.204	196.00
56.041	56.092	932.33
56.083	56.172	185.00
56.168	56.740	146.83
56.182	56.672	185.00
56.192	56.698	293.66
56.192	56.442	174.61
56.198	56.772	138.59
56.446	56.552	880.00
56.651	56.775	92.50
56.728	56.873	98.00
56.779	57.229	110.00
56.784	57.167	220.00
56.791	56.871	32.70
56.807	57.041	440.00
56.808	56.868	415.30
56.863	56.925	659.26
57.068	57.399	185.00
57.084	57.188	174.61
57.096	57.539	92.50
57.098	57.195	138.59
57.408	58.218	146.83
57.411	57.479	880.00
57.437	58.015	73.42
57.454	58.051	138.59
57.613	57.718	880.00
58.595	58.972	392.00
58.632	58.842	196.00
58.642	58.762	246.94
58.985	59.074	196.00
59.088	59.164	196.00
59.129	59.190	440.00
59.215	59.429	246.94
59.220	59.569	392.00
59.225	59.494	196.00
59.432	59.530	246.94
59.550	60.735	196.00
59.581	59.877	246.94
59.584	59.652	185.00
59.875	59.944	185.00
59.998	60.085	246.94
60.082	60.457	293.66
60.292	60.385	246.94
60.416	60.618	392.00
60.485	60.557	185.00
60.703	60.891	493.88
60.763	60.998	196.00
60.789	60.945	246.94