2.952	3.110	698.46
3.095	3.267	622.25
3.250	3.435	587.33
3.391	3.675	523.25
3.714	3.826	466.16
3.715	4.037	233.08
4.006	4.267	293.66
4.071	4.270	233.08
4.089	4.194	466.16
4.304	4.369	233.08
4.388	4.483	293.66
4.695	4.894	293.66
4.902	5.172	587.33
4.984	5.238	233.08
5.062	5.590	293.66
5.220	5.446	783.99
5.512	5.605	587.33
5.548	5.650	392.00
5.638	5.846	293.66
5.793	5.986	698.46
6.066	6.437	698.46
6.397	6.552	622.25
6.401	6.961	311.13
6.901	7.061	622.25
7.063	7.579	311.13
7.292	7.487	698.46
7.398	7.525	261.63
7.594	7.821	698.46
7.596	8.176	311.13
7.766	7.885	622.25
7.894	8.137	587.33
8.046	8.226	523.25
8.202	8.529	466.16
8.509	8.769	174.61
8.539	8.778	466.16
8.796	9.067	440.00
9.069	9.192	440.00
9.108	9.497	311.13
9.252	9.365	440.00
9.498	9.644	261.63
9.720	9.804	174.61
9.760	9.812	415.30
9.763	10.039	440.00
9.818	9.928	174.61
9.999	10.329	466.16
10.298	10.543	523.25
10.365	10.669	311.13
10.600	10.708	440.00
10.652	10.949	523.25
10.913	11.174	233.08
11.097	11.231	523.25
11.190	12.112	293.66
11.202	11.304	587.33
11.227	11.316	466.16
11.433	11.483	587.33
12.088	12.281	698.46
12.105	12.454	233.08
12.239	12.479	659.26
12.401	12.606	293.66
12.404	12.651	783.99
12.466	12.675	233.08
12.547	12.732	698.46
12.690	12.884	622.25
12.752	12.844	293.66
12.851	13.309	587.33
12.937	13.054	293.66
12.994	13.598	311.13
13.290	13.586	523.25
13.603	13.892	293.66
13.903	14.190	466.16
13.906	14.228	293.66
14.199	14.561	587.33
14.259	15.078	311.13
14.266	14.324	293.66
14.490	14.789	523.25
14.532	14.643	392.00
15.093	15.484	440.00
15.175	15.471	311.13
15.399	16.028	293.66
15.406	15.654	466.16
15.440	15.523	349.23
15.546	15.782	523.25
15.716	15.926	466.16
15.845	16.051	440.00
16.009	16.244	466.16
16.140	16.406	523.25
16.289	16.553	587.33
16.444	16.633	622.25
16.590	16.839	659.26
16.742	16.958	698.46
16.884	17.142	659.26
17.047	17.277	698.46
17.200	17.465	783.99
17.336	17.581	698.46
17.488	17.687	622.25
17.639	18.122	587.33
17.786	18.436	311.13
17.796	17.845	293.66
18.095	18.333	523.25
18.404	18.693	293.66
18.455	18.664	523.25
18.708	18.901	466.16
18.731	19.098	293.66
18.988	19.636	311.13
19.004	19.367	587.33
19.298	19.538	523.25
19.656	19.910	523.25
19.887	20.196	311.13
19.904	20.025	440.00
20.189	20.847	293.66
20.202	20.515	466.16
20.230	20.450	349.23
20.497	20.715	523.25
20.654	20.879	587.33
20.793	20.975	622.25
20.944	21.152	698.46
21.117	21.311	783.99
21.246	21.446	880.00
21.388	21.565	932.33
21.546	21.688	1046.50
21.698	21.923	1174.66
21.838	22.030	1244.51
21.995	22.173	1396.91
22.289	22.432	1396.91
22.583	23.330	220.00
22.584	23.460	698.46
22.601	22.699	659.26
22.624	22.761	440.00
22.885	22.969	1174.66
22.885	23.292	1244.51
23.192	23.911	233.08
23.323	23.454	1244.51
23.499	23.622	1174.66
23.633	23.731	698.46
23.682	23.820	1174.66
23.782	23.984	146.83
23.795	24.402	155.56
23.864	24.011	1174.66
24.030	24.093	1174.66
24.091	24.273	1046.50
24.110	24.281	622.25
24.125	24.268	932.33
24.388	24.901	174.61
24.392	24.574	932.33
24.392	24.666	587.33
24.694	24.885	880.00
24.694	24.925	523.25
24.985	25.329	932.33
24.994	25.359	587.33
25.157	25.222	1174.66
25.290	25.542	116.54
25.577	25.893	146.83
25.600	25.909	466.16
25.605	25.786	138.59
25.894	26.103	174.61
26.190	26.844	233.08
26.198	26.288	220.00
26.807	26.980	392.00
26.962	27.133	349.23
27.090	27.286	311.13
27.236	27.461	293.66
27.246	27.303	277.18
27.396	27.753	261.63
27.698	28.018	233.08
27.704	28.289	116.54
27.711	27.765	220.00
28.011	28.598	146.83
28.076	28.156	220.00
28.083	28.833	233.08
28.297	28.533	116.54
28.314	28.573	174.61
28.674	29.886	146.83
28.694	28.834	138.59
28.865	28.958	138.59
28.905	29.190	466.16
28.981	29.306	116.54
29.197	29.453	440.00
29.286	29.543	138.59
29.359	29.463	116.54
29.503	29.774	392.00
29.583	29.836	174.61
29.802	30.458	349.23
30.088	30.687	130.81
30.401	30.765	329.63
30.426	30.521	65.41
30.528	30.616	65.41
30.683	31.046	65.41
30.727	30.994	233.08
31.161	31.295	392.00
31.288	32.238	130.81
31.306	31.496	349.23
31.450	31.567	440.00
31.620	31.750	392.00
31.754	31.897	466.16
31.899	32.035	440.00
31.924	32.116	233.08
32.054	32.256	523.25
32.212	32.365	466.16
32.356	32.598	392.00
32.493	32.720	659.26
32.640	32.897	523.25
32.807	33.042	783.99
32.838	32.909	196.00
32.917	32.991	196.00
32.936	33.186	659.26
33.083	33.268	932.33
33.126	33.226	261.63
33.240	33.463	880.00
33.386	33.570	932.33
33.408	33.858	196.00
33.542	33.765	880.00
33.703	33.955	783.99
33.718	33.823	164.81
33.838	34.050	698.46
33.926	33.988	196.00
33.989	34.234	659.26
34.037	34.318	196.00
34.144	34.398	587.33
34.292	34.523	523.25
34.295	34.659	261.63
34.449	34.866	466.16
34.738	34.890	440.00
34.888	35.148	587.33
34.902	35.184	174.61
35.053	35.501	523.25
35.202	35.725	220.00
35.872	36.134	220.00
36.114	36.353	174.61
36.397	36.517	1174.66
36.454	36.771	220.00
36.544	36.685	1046.50
36.686	36.872	932.33
36.846	37.049	880.00
37.001	37.597	783.99
37.003	37.873	233.08
37.891	38.256	659.26
38.053	38.183	233.08
38.187	38.797	220.00
38.191	38.377	698.46
38.347	38.480	1046.50
38.487	38.713	987.77
38.529	38.650	261.63
38.646	38.761	1046.50
38.799	38.927	1174.66
38.873	39.323	220.00
38.942	39.085	1046.50
39.089	39.262	932.33
39.251	39.428	880.00
39.323	39.498	220.00
39.392	39.691	783.99
39.403	40.567	233.08
39.696	40.155	783.99
40.291	40.602	659.26
40.590	41.197	220.00
40.591	40.772	698.46
40.743	40.906	1046.50
40.889	41.105	987.77
40.934	41.033	261.63
41.043	41.186	1046.50
41.197	41.331	1174.66
41.230	41.584	220.00
41.480	41.554	440.00
41.483	41.668	932.33
41.602	41.901	220.00
41.622	41.686	261.63
41.645	42.070	880.00
41.799	42.362	233.08
42.100	42.413	293.66
42.101	42.526	783.99
42.428	42.730	233.08
42.699	43.023	293.66
42.701	43.398	783.99
43.004	43.411	246.94
43.289	43.666	698.46
43.293	43.619	293.66
43.656	43.904	246.94
43.889	44.220	698.46
43.894	43.949	277.18
43.895	44.226	293.66
44.188	44.448	659.26
44.199	44.660	261.63
44.336	44.559	698.46
44.483	44.742	659.26
44.637	44.886	523.25
44.668	44.775	261.63
44.784	45.439	293.66
44.785	44.872	277.18
44.787	45.035	698.46
44.956	45.207	783.99
44.978	45.035	739.99
45.044	45.134	880.00
45.086	45.337	698.46
45.239	45.505	523.25
45.383	46.075	329.63
45.392	45.681	783.99
45.545	45.740	880.00
45.688	45.977	783.99
45.836	46.130	523.25
45.987	46.235	880.00
46.008	46.433	349.23
46.138	46.320	932.33
46.283	46.511	880.00
46.429	46.731	523.25
46.477	46.618	349.23
46.582	46.791	932.33
46.591	46.923	392.00
46.871	47.075	932.33
46.889	47.093	523.25
47.185	47.555	329.63
47.493	47.779	783.99
47.493	47.682	523.25
47.782	48.134	932.33
47.793	48.107	349.23
48.092	48.312	880.00
48.093	48.263	523.25
48.389	48.735	293.66
48.392	48.459	277.18
48.399	48.667	783.99
48.686	48.930	698.46
48.703	48.871	523.25
48.986	49.248	659.26
48.999	49.511	261.63
49.145	49.358	523.25
49.292	49.490	987.77
49.441	49.557	1046.50
49.582	50.222	293.66
49.586	49.836	698.46
49.594	49.668	277.18
49.743	50.024	523.25
49.747	49.798	493.88
49.841	49.937	880.00
49.886	49.967	493.88
49.964	50.124	987.77
50.050	50.181	1046.50
50.180	50.912	329.63
50.190	50.484	783.99
50.329	50.641	523.25
50.647	50.770	1046.50
50.787	51.030	880.00
50.790	51.445	349.23
50.951	51.246	523.25
51.095	51.320	987.77
51.254	51.421	1046.50
51.379	51.580	932.33
51.397	51.702	392.00
51.550	51.679	523.25
51.593	51.874	932.33
51.848	52.012	523.25
52.000	52.194	329.63
52.151	52.340	523.25
52.293	52.456	880.00
52.378	52.680	783.99
52.442	52.637	739.99
52.457	52.608	523.25
52.582	52.910	932.33
52.603	52.798	349.23
52.744	52.915	523.25
52.890	53.117	880.00
53.052	53.173	523.25
53.189	53.410	293.66
53.198	53.259	277.18
53.201	53.473	783.99
53.487	53.733	698.46
53.509	53.566	440.00
53.788	54.045	659.26
53.792	54.336	261.63
53.877	54.057	523.25
53.951	54.064	1046.50
54.112	54.368	783.99
54.235	54.487	659.26
54.446	54.636	523.25
54.545	54.845	392.00
54.642	54.699	261.63
54.681	54.959	329.63
54.908	54.997	261.63
54.970	55.562	130.81
54.986	55.068	146.83
54.990	55.360	123.47
55.004	55.234	196.00
55.011	55.085	880.00
55.081	55.523	65.41
56.192	56.303	164.81
56.199	57.099	87.31
56.203	56.383	440.00
56.205	56.590	174.61
56.214	56.369	349.23
56.224	56.376	261.63
56.441	56.513	1046.50
56.457	56.516	440.00
56.514	56.728	349.23
56.535	56.622	440.00
56.622	56.820	440.00
56.642	56.869	174.61
56.680	56.867	261.63
56.894	56.947	174.61
56.980	57.063	349.23
57.000	57.134	261.63
57.103	57.205	587.33
57.107	57.188	349.23
57.215	57.287	174.61
57.271	57.427	523.25
57.324	57.413	174.61
57.411	57.581	466.16
57.707	57.785	440.00
58.012	58.175	392.00
58.313	58.477	349.23
58.603	58.931	349.23
58.895	59.009	587.33
59.082	59.148	587.33
59.175	60.498	116.54
59.199	59.408	349.23
59.219	59.482	233.08
59.221	59.353	220.00
59.267	59.422	587.33
59.449	59.656	349.23
59.449	59.692	587.33
59.680	59.746	233.08
59.688	60.115	349.23
59.870	59.975	587.33
60.057	60.139	233.08
60.088	60.357	523.25
60.401	60.651	659.26
60.704	60.841	698.46