0.976	3.543	130.81
0.979	1.398	123.47
1.007	1.615	65.41
1.023	1.093	196.00
1.101	1.196	392.00
1.125	1.265	196.00
1.462	1.529	123.47
1.554	1.713	123.47
1.635	1.730	46.25
1.651	1.823	65.41
1.866	1.997	123.47
1.874	2.122	65.41
2.150	2.480	123.47
2.170	3.029	65.41
2.189	2.244	196.00
2.360	2.450	196.00
2.794	2.906	123.47
3.043	3.237	123.47
3.078	3.317	65.41
3.344	3.666	138.59
3.378	3.587	69.30
3.428	3.565	415.30
3.944	4.891	146.83
3.947	4.629	138.59
3.979	4.914	73.42
3.982	4.050	880.00
4.189	4.315	880.00
4.853	4.983	138.59
4.864	5.110	82.41
4.868	5.069	164.81
5.156	5.446	174.61
5.165	5.213	146.83
5.171	5.404	87.31
5.233	5.284	1046.50
5.465	5.708	82.41
5.472	5.665	164.81
5.479	5.546	493.88
5.746	6.263	138.59
5.746	6.539	146.83
5.775	6.647	73.42
5.791	5.879	880.00
6.001	6.106	880.00
6.413	6.536	138.59
6.640	6.751	146.83
6.655	6.817	138.59
6.663	6.923	73.42
6.691	6.748	880.00
6.943	8.329	146.83
6.948	7.791	138.59
6.970	7.583	73.42
7.628	8.128	73.42
7.649	7.721	880.00
7.710	7.769	932.33
7.846	8.096	138.59
7.883	7.944	880.00
8.154	8.477	155.56
8.166	8.467	77.78
8.174	8.313	233.08
8.178	8.258	1046.50
8.184	8.372	466.16
8.748	8.928	155.56
8.756	9.525	164.81
8.764	9.754	82.41
8.765	8.823	233.08
8.784	8.837	554.37
8.787	8.836	493.88
9.651	9.884	185.00
9.652	9.958	92.50
9.680	9.799	174.61
9.689	9.824	415.30
9.955	10.108	185.00
9.964	10.250	98.00
9.972	10.189	196.00
10.246	10.718	110.00
10.270	10.444	220.00
10.337	10.396	440.00
10.555	11.701	116.54
10.569	11.348	233.08
10.569	10.626	138.59
10.570	10.633	130.81
10.576	10.639	220.00
10.576	10.693	1396.91
10.577	10.669	1046.50
10.832	10.903	698.46
11.219	11.324	110.00
11.453	11.547	110.00
11.478	11.712	233.08
11.741	12.986	138.59
11.746	12.306	130.81
11.756	11.816	123.47
11.761	11.975	415.30
11.776	12.628	69.30
11.782	11.865	932.33
11.899	11.951	932.33
12.694	12.842	130.81
12.751	12.823	69.30
12.941	14.146	110.00
12.963	13.757	220.00
12.968	13.050	415.30
12.968	13.223	440.00
13.616	13.715	98.00
13.634	13.717	415.30
13.641	13.730	440.00
13.863	14.054	220.00
13.874	13.941	415.30
13.874	14.008	440.00
13.874	13.931	659.26
14.143	14.901	123.47
14.148	15.349	130.81
14.169	14.227	146.83
14.174	14.256	185.00
14.175	14.256	392.00
14.175	14.237	880.00
14.187	15.077	65.41
14.233	14.420	196.00
14.312	14.388	392.00
14.860	14.932	196.00
14.961	15.084	196.00
15.098	15.160	123.47
15.140	15.223	196.00
15.340	15.613	123.47
15.354	15.531	185.00
15.366	15.530	116.54
15.384	15.602	61.74
15.647	15.889	138.59
15.654	16.146	146.83
15.682	15.922	73.42
15.685	15.772	880.00
15.948	16.102	138.59
15.950	16.282	98.00
15.958	16.041	185.00
15.963	16.203	196.00
16.253	16.573	174.61
16.264	16.354	164.81
16.265	16.512	87.31
16.289	16.366	1046.50
16.557	16.771	164.81
16.562	16.823	82.41
16.843	17.039	123.47
16.848	17.211	130.81
16.878	17.000	196.00
16.884	16.960	392.00
16.907	17.125	65.41
17.137	17.489	123.47
17.147	17.310	116.54
17.184	17.397	61.74
17.185	17.327	185.00
17.449	17.728	110.00
17.484	17.596	277.18
17.490	17.696	55.00
17.753	18.361	174.61
17.766	18.414	87.31
17.796	17.939	1046.50
18.018	18.111	261.63
18.360	18.940	82.41
18.378	18.450	493.88
18.382	19.038	164.81
18.936	19.465	138.59
18.946	20.350	146.83
18.979	20.121	73.42
18.982	19.043	880.00
19.190	19.303	880.00
19.894	19.978	138.59
20.026	20.217	138.59
20.145	21.586	130.81
20.148	20.420	123.47
20.162	20.217	185.00
20.163	20.469	392.00
20.180	20.955	196.00
20.192	20.808	65.41
20.799	20.945	123.47
20.815	20.918	185.00
21.051	21.199	185.00
21.051	21.126	123.47
21.066	21.320	196.00
21.077	21.189	392.00
21.364	21.542	185.00
21.370	21.810	196.00
21.374	21.558	392.00
21.562	21.649	392.00
21.609	21.677	130.81
21.641	21.962	146.83
21.652	21.885	138.59
21.697	21.762	880.00
21.698	21.879	73.42
21.825	22.221	196.00
21.953	22.108	155.56
21.955	22.141	164.81
21.979	22.090	82.41
22.026	22.129	185.00
22.107	22.170	82.41
22.257	22.533	174.61
22.259	22.502	196.00
22.268	22.330	164.81
22.273	22.431	87.31
22.278	22.458	392.00
22.310	22.389	130.81
22.555	22.701	155.56
22.557	22.753	207.65
22.557	22.761	82.41
22.558	22.708	164.81
22.574	22.846	415.30
22.610	22.710	1046.50
22.847	23.178	146.83
22.851	23.098	138.59
22.891	23.097	73.42
23.148	23.495	130.81
23.153	23.343	123.47
23.162	24.024	220.00
23.162	23.541	440.00
23.174	23.343	65.41
23.202	23.280	392.00
23.226	23.311	196.00
23.231	23.332	146.83
23.435	23.761	123.47
23.455	23.610	116.54
23.463	23.569	185.00
23.499	23.671	61.74
23.626	23.766	440.00
23.765	23.874	277.18
23.768	24.524	110.00
23.798	24.105	55.00
24.067	24.248	493.88
24.067	24.217	246.94
24.067	24.130	233.08
24.122	24.351	55.00
24.353	24.616	261.63
24.524	24.582	55.00
24.644	24.822	155.56
24.654	24.824	164.81
24.665	24.870	82.41
24.671	24.832	246.94
24.693	24.749	493.88
24.958	25.339	174.61
24.959	25.042	415.30
24.965	26.057	220.00
24.969	25.082	440.00
24.973	25.047	130.81
24.977	25.852	87.31
25.015	25.169	1046.50
25.097	25.277	440.00
25.319	25.380	440.00
25.435	25.510	440.00
25.453	25.571	174.61
25.613	26.017	440.00
25.620	25.726	415.30
26.159	26.427	440.00
26.159	26.491	220.00
26.277	26.435	87.31
26.454	26.665	164.81
26.479	26.663	82.41
26.515	27.011	220.00
26.755	27.019	174.61
26.764	26.971	87.31
26.830	26.983	440.00
27.041	27.251	220.00
27.053	27.274	440.00
27.054	27.132	415.30
27.058	27.295	196.00
27.071	27.423	98.00
27.345	27.500	220.00
27.359	27.524	185.00
27.363	27.643	233.08
27.364	27.641	92.50
27.364	27.446	466.16
27.365	27.427	1396.91
27.366	27.497	174.61
27.387	27.465	415.30
27.477	27.590	466.16
27.647	27.737	155.56
27.662	27.830	164.81
27.666	27.874	82.41
27.941	28.178	138.59
27.946	28.262	146.83
27.968	28.084	493.88
27.968	28.591	246.94
27.992	28.176	73.42
28.132	28.425	493.88
28.230	28.562	138.59
28.249	28.411	130.81
28.249	28.327	123.47
28.293	28.394	415.30
28.318	28.406	69.30
28.538	29.522	123.47
28.555	28.832	116.54
28.570	28.620	146.83
28.572	28.913	185.00
28.585	29.173	61.74
28.851	29.111	277.18
28.958	29.139	185.00
29.155	29.348	293.66
29.156	29.321	277.18
29.338	29.409	587.33
29.457	29.697	329.63
29.462	29.718	110.00
29.469	29.664	659.26
29.476	29.569	277.18
29.753	30.036	103.83
29.756	29.898	698.46
29.764	30.370	349.23
29.765	29.895	311.13
29.769	29.875	130.81
29.779	29.832	246.94
29.828	29.940	51.91
30.044	30.358	123.47
30.046	30.192	116.54
30.080	30.249	61.74
30.086	30.159	698.46
30.099	30.182	185.00
30.240	30.329	698.46
30.342	30.575	698.46
30.364	30.616	103.83
30.376	30.483	311.13
30.397	30.578	51.91
30.399	30.624	349.23
30.412	30.478	98.00
30.446	30.501	155.56
30.640	30.925	123.47
30.645	30.886	349.23
30.651	30.751	116.54
30.702	30.800	185.00
30.961	31.741	174.61
30.962	31.235	415.30
30.963	31.914	207.65
30.964	31.194	87.31
30.986	31.035	233.08
31.006	31.059	130.81
31.260	31.314	164.81
31.261	31.325	98.00
31.269	32.130	87.31
31.293	31.713	415.30
31.916	32.050	207.65
31.919	32.059	415.30
32.153	32.962	329.63
32.157	32.524	98.00
32.160	32.498	659.26
32.164	32.422	49.00
32.181	32.323	146.83
32.442	32.506	146.83
32.449	32.614	110.00
32.458	32.714	116.54
32.611	32.804	659.26
32.756	33.015	49.00
32.768	33.140	98.00
32.798	32.863	146.83
32.818	32.893	311.13
32.828	32.892	138.59
32.837	32.986	659.26
33.023	33.103	146.83
33.046	33.217	110.00
33.054	33.102	311.13
33.058	33.307	116.54
33.059	33.229	329.63
33.066	33.275	659.26
33.341	33.499	155.56
33.352	33.409	146.83
33.355	33.544	185.00
33.358	34.531	196.00
33.363	33.568	82.41
33.365	33.527	164.81
33.374	33.759	392.00
33.378	33.430	123.47
33.378	33.476	138.59
33.379	33.427	98.00
33.641	34.059	164.81
33.654	33.842	155.56
33.666	34.322	82.41
33.819	33.878	392.00
34.307	34.458	185.00
34.342	34.461	392.00
34.547	34.805	185.00
34.548	35.168	146.83
34.549	35.045	138.59
34.588	34.902	73.42
34.593	34.711	174.61
34.645	34.710	932.33
34.679	34.749	369.99
34.864	35.019	440.00
34.864	35.171	220.00
34.864	34.930	415.30
34.912	35.130	73.42
35.153	35.855	92.50
35.162	35.362	293.66
35.165	35.214	123.47
35.165	35.454	277.18
35.324	35.759	46.25
35.327	35.441	587.33
35.459	35.726	261.63
35.483	35.553	185.00
35.769	35.854	138.59
35.769	36.109	98.00
35.770	35.933	246.94
35.770	35.951	493.88
35.771	35.926	146.83
35.783	35.845	233.08
35.915	36.013	49.00
36.069	36.310	196.00
36.069	36.125	185.00
36.071	36.396	110.00
36.072	36.285	392.00
36.093	36.197	55.00
36.163	36.224	185.00
36.341	36.810	123.47
36.350	36.528	116.54
36.356	36.531	185.00
36.358	36.422	130.81
36.374	36.550	369.99
36.397	36.466	174.61
36.412	36.557	61.74
36.546	36.633	185.00
36.646	36.719	155.56
36.650	36.954	130.81
36.653	36.817	329.63
36.666	36.906	164.81
36.671	36.752	185.00
36.694	36.783	196.00
36.731	36.805	65.41
36.944	37.017	123.47
36.949	37.432	146.83
36.951	37.214	138.59
36.955	37.622	261.63
36.985	37.212	73.42
37.237	37.431	185.00
37.257	37.440	138.59
37.262	37.605	92.50
37.267	37.411	174.61
37.556	37.629	146.83
37.556	38.605	98.00
37.575	37.652	185.00
37.576	38.156	246.94
37.664	37.734	493.88
37.691	37.775	233.08
37.760	37.836	587.33
37.767	37.902	493.88
37.949	38.047	196.00
38.091	38.167	196.00
38.154	39.139	220.00
38.155	38.250	415.30
38.161	38.795	440.00
38.441	38.525	587.33
38.647	38.711	98.00
38.732	38.816	98.00
38.747	39.362	185.00
38.762	38.827	116.54
38.764	39.430	92.50
38.765	38.967	174.61
39.086	39.218	440.00
39.340	39.954	174.61
39.347	39.501	164.81
39.368	40.001	87.31
39.368	39.529	246.94
39.411	39.474	493.88
39.669	39.912	196.00
39.671	39.738	185.00
39.671	39.835	392.00
39.749	39.825	185.00
39.948	40.039	155.56
39.956	40.571	164.81
39.961	40.560	261.63
39.964	40.550	82.41
39.972	40.058	523.25
40.111	40.164	523.25
40.399	40.466	523.25
40.544	41.259	138.59
40.551	41.383	146.83
40.577	40.663	880.00
40.578	41.658	73.42
40.766	41.141	261.63
40.808	40.873	880.00
41.166	41.673	246.94
41.179	41.323	493.88
41.378	41.602	493.88
41.403	41.936	146.83
41.666	41.730	880.00
41.720	41.813	138.59
41.742	42.009	123.47
41.751	41.815	155.56
41.753	42.108	164.81
41.760	41.968	261.63
41.760	43.424	130.81
41.999	42.110	261.63
42.149	42.232	123.47
42.216	42.500	164.81
42.364	42.529	123.47
42.426	42.546	261.63
42.566	42.644	164.81
42.653	42.732	123.47
42.664	42.884	261.63
42.956	43.149	261.63
43.144	43.268	164.81
43.246	43.446	185.00
43.259	43.502	196.00
43.328	43.473	164.81
43.558	43.769	220.00
43.568	43.735	174.61
43.611	43.839	261.63
43.853	44.119	261.63
43.860	43.931	220.00
43.864	43.940	185.00
43.864	44.074	196.00
43.872	44.127	233.08
43.887	43.963	523.25
43.958	44.018	185.00
44.161	44.435	277.18
44.167	44.426	174.61
44.168	44.356	220.00
44.196	44.255	440.00
44.457	44.547	185.00
44.466	44.713	196.00
44.476	44.652	164.81
44.549	44.627	185.00
44.750	45.041	146.83
44.754	44.956	138.59
44.756	44.811	587.33
44.756	44.806	277.18
44.766	44.895	164.81
44.766	45.030	174.61
44.767	45.420	293.66
44.889	45.036	587.33
45.048	45.302	110.00
45.054	45.285	164.81
45.069	45.161	146.83
45.344	45.911	138.59
45.350	46.247	146.83
45.373	46.254	87.31
45.425	45.616	587.33
45.546	45.686	293.66
45.592	45.671	880.00
45.648	45.900	329.63
45.668	45.863	659.26
45.945	46.019	138.59
45.952	46.115	329.63
45.962	46.171	349.23
45.963	46.160	698.46
46.038	46.123	138.59
46.228	47.120	138.59
46.241	46.654	110.00
46.252	46.422	130.81
46.254	46.428	329.63
46.264	46.321	659.26
46.300	46.434	415.30
46.377	46.470	659.26
46.543	48.325	146.83
46.559	48.135	116.54
46.566	47.612	293.66
46.760	46.946	587.33
47.009	47.129	880.00
47.209	47.304	138.59
47.428	47.660	138.59
47.472	47.521	587.33
47.611	47.684	587.33
47.732	47.977	138.59
47.757	48.405	293.66
47.773	47.826	587.33
47.887	47.973	587.33
48.025	48.078	880.00
48.027	48.243	138.59
48.073	48.340	233.08
48.073	48.204	220.00
48.077	48.170	1396.91
48.358	48.617	233.08
48.401	48.656	587.33
48.658	48.731	587.33
48.661	48.892	261.63
48.666	48.845	220.00
48.678	48.852	293.66
48.842	48.918	587.33
48.952	49.030	587.33
48.958	49.021	233.08
48.959	49.215	622.25
48.960	49.209	196.00
48.970	49.037	185.00
48.980	49.146	246.94
49.253	49.488	185.00
49.260	49.485	220.00
49.274	49.393	174.61
49.302	49.397	440.00
49.552	49.715	185.00
49.553	49.610	311.13
49.555	50.169	329.63
49.562	49.822	659.26
49.562	49.774	164.81
49.562	49.820	196.00
49.844	50.110	123.47
49.847	50.100	185.00
49.878	50.004	174.61
49.909	50.522	659.26
50.154	51.103	98.00
50.162	50.500	164.81
50.307	50.511	329.63
50.465	50.858	369.99
50.479	50.576	739.99
50.596	50.737	329.63
50.776	50.954	392.00
50.841	51.028	196.00
51.044	51.250	138.59
51.049	51.361	146.83
51.058	51.238	87.31
51.072	51.156	440.00
51.072	51.232	880.00
51.345	51.630	138.59
51.351	51.492	932.33
51.354	51.476	130.81
51.367	51.562	82.41
51.368	51.495	155.56
51.372	51.665	466.16
51.554	51.742	932.33
51.663	51.860	164.81
51.667	51.894	98.00
51.696	51.934	466.16
51.763	52.100	932.33
51.951	52.079	130.81
51.955	52.224	138.59
51.959	52.092	155.56
51.974	52.164	82.41
52.039	52.216	466.16
52.260	52.481	466.16
52.267	52.365	932.33
52.270	52.476	98.00
52.273	52.441	164.81
52.559	53.499	277.18
52.562	52.782	196.00
52.563	53.746	233.08
52.581	52.631	185.00
52.647	52.717	554.37
52.764	52.815	554.37
52.864	53.134	196.00
52.906	53.036	554.37
53.104	53.167	554.37
53.197	53.462	196.00
53.345	53.411	554.37
53.514	53.710	277.18
53.741	53.792	138.59
53.753	54.060	130.81
53.755	53.900	123.47
53.763	53.824	146.83
53.765	53.952	880.00
53.765	53.958	77.78
53.769	54.365	440.00
53.802	53.950	155.56
54.003	54.142	880.00
54.053	54.260	155.56
54.056	54.128	146.83
54.082	54.301	92.50
54.114	54.185	311.13
54.351	54.722	130.81
54.354	54.521	123.47
54.368	54.587	155.56
54.393	54.560	77.78
54.416	54.558	880.00
54.435	54.487	415.30
54.441	54.572	440.00
54.666	54.866	155.56
54.669	54.839	440.00
54.683	54.862	880.00
54.684	54.892	92.50
54.715	54.770	311.13
54.954	55.676	261.63
54.968	55.165	185.00
54.969	55.111	174.61
54.971	55.931	220.00
54.972	55.021	415.30
54.972	55.063	523.25
55.005	55.089	440.00
55.107	55.191	523.25
55.247	55.838	185.00
55.272	55.508	174.61
55.698	56.128	261.63
56.003	56.151	220.00
56.041	56.248	185.00
56.163	56.767	196.00
56.176	56.240	233.08
56.178	56.330	246.94
56.180	56.290	493.88
56.457	56.661	293.66
56.459	56.514	277.18
56.745	57.449	146.83
56.755	56.965	138.59
56.757	57.512	123.47
56.758	56.817	116.54
56.772	57.017	392.00
57.034	57.294	138.59
57.053	57.116	329.63
57.059	57.274	349.23
57.063	57.205	698.46
57.355	57.532	329.63
57.359	57.416	155.56
57.361	57.572	164.81
57.364	57.440	659.26
57.364	57.648	130.81
57.502	57.574	659.26
57.656	57.733	164.81
57.657	57.859	138.59
57.658	57.908	146.83
57.658	57.936	174.61
57.665	57.910	261.63
57.967	58.092	164.81
57.968	58.031	185.00
57.968	58.207	196.00
57.968	58.032	233.08
57.968	58.130	493.88
57.971	58.120	246.94
58.059	58.122	185.00
58.256	58.471	220.00
58.258	58.336	415.30
58.265	58.432	174.61
58.269	58.442	440.00
58.548	59.255	146.83
58.558	58.648	698.46
58.559	58.799	138.59
58.561	58.656	329.63
58.563	58.960	349.23
58.570	58.723	185.00
58.570	58.825	196.00
58.592	58.665	880.00
58.709	58.762	698.46
58.816	59.193	138.59
58.872	59.046	246.94
58.909	59.015	698.46
58.982	59.236	349.23
59.058	59.157	698.46
59.140	59.329	123.47
59.153	59.552	130.81
59.153	59.200	311.13
59.155	59.827	329.63
59.157	59.331	659.26
59.175	59.315	261.63
59.176	59.324	392.00
59.189	59.252	880.00
59.316	59.460	261.63
59.448	59.724	164.81
59.451	59.521	155.56
59.497	59.586	261.63
59.599	59.741	261.63
59.710	59.844	659.26
59.858	60.102	261.63
60.107	60.372	261.63