1.887	2.170	415.30
2.180	2.429	329.63
2.181	2.243	130.81
2.183	2.445	138.59
2.338	2.551	277.18
2.493	2.640	207.65
2.498	2.684	329.63
2.642	2.808	415.30
2.787	3.042	138.59
2.796	2.981	329.63
2.937	3.155	277.18
3.096	3.296	220.00
3.101	3.273	329.63
3.240	3.370	440.00
3.378	3.438	293.66
3.378	3.714	130.81
3.379	3.619	311.13
3.541	3.723	261.63
3.685	3.911	311.13
3.686	3.767	293.66
3.703	3.911	220.00
3.851	3.971	440.00
3.980	4.381	130.81
3.981	4.052	293.66
3.983	4.226	311.13
4.144	4.295	261.63
4.276	4.524	311.13
4.283	4.350	293.66
4.302	4.456	207.65
4.446	4.606	415.30
4.584	4.847	138.59
4.659	4.868	415.30
4.728	4.974	329.63
4.893	5.020	415.30
4.914	5.064	207.65
5.038	5.109	415.30
5.048	5.243	659.26
5.191	5.363	164.81
5.195	5.432	415.30
5.334	5.566	329.63
5.495	5.722	415.30
5.498	5.665	207.65
5.650	5.798	554.37
5.793	5.974	440.00
5.800	5.972	155.56
5.939	6.190	415.30
6.099	6.294	369.99
6.102	6.283	220.00
6.254	6.393	554.37
6.385	6.663	523.25
6.430	6.544	155.56
6.548	6.803	369.99
6.683	6.949	415.30
6.696	6.864	207.65
6.832	7.111	523.25
6.981	7.255	138.59
7.000	7.177	554.37
7.132	7.371	329.63
7.285	7.543	415.30
7.301	7.482	277.18
7.450	7.613	554.37
7.578	7.857	138.59
7.579	7.661	130.81
7.585	7.818	659.26
7.742	7.988	415.30
7.888	8.112	659.26
8.045	8.213	830.61
8.184	8.399	185.00
8.186	8.415	659.26
8.196	8.379	174.61
8.347	8.488	440.00
8.479	8.712	220.00
8.493	8.709	659.26
8.640	8.811	830.61
8.783	9.013	185.00
8.788	9.048	587.33
8.803	8.974	174.61
8.951	9.192	739.99
9.094	9.304	220.00
9.095	9.280	554.37
9.252	9.471	659.26
9.379	9.661	110.00
9.383	9.653	523.25
9.535	9.729	622.25
9.686	9.901	185.00
9.696	9.866	554.37
9.705	9.874	174.61
9.834	10.055	659.26
9.987	10.181	622.25
9.994	10.213	103.83
10.149	10.372	739.99
10.283	10.554	523.25
10.305	10.470	207.65
10.437	10.628	622.25
10.575	10.655	130.81
10.582	10.845	138.59
10.589	10.820	659.26
10.747	10.920	554.37
10.897	11.076	493.88
10.916	11.041	155.56
11.041	11.191	440.00
11.185	11.429	415.30
11.189	11.374	164.81
11.351	11.515	369.99
11.485	11.691	329.63
11.489	11.670	207.65
11.634	11.873	311.13
11.786	12.020	138.59
11.807	11.980	329.63
11.946	12.121	277.18
12.103	12.282	329.63
12.108	12.235	207.65
12.248	12.389	415.30
12.389	12.543	138.59
12.408	12.579	329.63
12.548	12.739	277.18
12.567	12.620	138.59
12.706	12.854	220.00
12.707	12.869	329.63
12.851	12.965	440.00
12.985	13.182	123.47
12.986	13.045	293.66
12.990	13.205	311.13
13.154	13.285	246.94
13.286	13.502	311.13
13.291	13.362	293.66
13.302	13.502	220.00
13.455	13.562	440.00
13.581	13.833	311.13
13.586	13.779	123.47
13.587	13.650	293.66
13.758	13.886	246.94
13.880	14.104	311.13
13.919	14.047	207.65
14.058	14.215	415.30
14.210	14.362	164.81
14.253	14.467	415.30
14.338	14.548	277.18
14.484	14.713	415.30
14.504	14.646	207.65
14.654	14.787	554.37
14.794	15.052	110.00
14.802	15.018	369.99
14.936	14.996	293.66
14.936	15.146	311.13
15.104	15.267	220.00
15.131	15.256	369.99
15.257	15.389	554.37
15.386	15.626	415.30
15.400	15.604	103.83
15.534	15.752	329.63
15.697	15.865	415.30
15.855	15.990	554.37
15.992	16.166	207.65
16.005	16.170	415.30
16.131	16.358	329.63
16.298	16.518	415.30
16.449	16.591	493.88
16.591	16.864	392.00
16.596	16.831	138.59
16.736	16.934	329.63
16.894	17.135	392.00
16.909	17.062	164.81
17.044	17.258	466.16
17.171	17.495	130.81
17.191	17.410	659.26
17.355	17.523	466.16
17.490	17.674	233.08
17.497	17.702	659.26
17.656	17.866	783.99
17.780	17.991	123.47
17.786	17.978	622.25
17.957	18.162	783.99
18.087	18.283	622.25
18.252	18.421	739.99
18.392	18.648	130.81
18.395	18.541	440.00
18.401	18.450	123.47
18.541	18.758	659.26
18.699	18.862	440.00
18.703	18.875	185.00
18.836	19.018	622.25
18.986	19.191	138.59
18.998	19.141	440.00
19.158	19.272	739.99
19.293	19.505	415.30
19.451	19.619	659.26
19.595	19.779	329.63
19.597	19.812	110.00
19.767	19.865	554.37
19.886	20.093	277.18
19.911	20.073	185.00
20.050	20.155	440.00
20.185	20.403	123.47
20.199	20.338	246.94
20.344	20.487	415.30
20.490	20.689	329.63
20.507	20.624	207.65
20.657	20.741	493.88
20.782	20.997	123.47
20.793	20.934	246.94
20.951	21.057	440.00
21.085	21.151	293.66
21.087	21.293	311.13
21.121	21.251	220.00
21.257	21.349	493.88
21.386	21.590	123.47
21.397	21.521	440.00
21.534	21.591	293.66
21.535	21.737	311.13
21.714	21.829	246.94
21.913	22.020	440.00
21.994	22.191	415.30
22.021	22.091	164.81
22.148	22.321	329.63
22.300	22.526	415.30
22.305	22.471	185.00
22.445	22.589	440.00
22.599	22.758	493.88
22.600	22.726	207.65
22.757	22.882	415.30
22.905	23.050	493.88
23.208	23.301	493.88
23.499	23.645	523.25
23.676	23.776	659.26
23.800	23.950	220.00
23.811	23.907	554.37
23.948	24.124	329.63
24.108	24.255	554.37
24.132	24.299	110.00
24.250	24.436	659.26
24.387	24.593	123.47
24.404	24.543	493.88
24.551	24.705	622.25
24.694	24.910	138.59
24.696	24.812	440.00
24.873	24.960	554.37
24.986	25.186	123.47
24.996	25.173	415.30
25.159	25.284	246.94
25.302	25.492	415.30
25.458	25.537	493.88
25.592	25.790	123.47
25.595	25.779	329.63
25.744	25.934	233.08
25.903	26.077	329.63
26.199	26.394	123.47
26.348	26.519	220.00
26.790	26.999	123.47
26.817	26.895	369.99
26.946	27.117	220.00
27.409	27.577	164.81
27.431	27.541	329.63
27.564	27.718	207.65
27.567	27.718	329.63
27.766	27.982	329.63
27.987	28.647	123.47
28.156	28.344	82.41
28.589	28.780	311.13
28.759	28.878	220.00
28.882	29.074	311.13
29.182	29.856	123.47
29.353	29.667	82.41
29.661	29.808	185.00
29.835	30.154	329.63
29.954	30.152	207.65
30.426	30.537	164.81
30.625	30.879	207.65
30.708	30.873	659.26
30.718	30.788	246.94
30.867	30.937	830.61
30.991	31.404	329.63
31.075	31.156	830.61
31.145	31.257	415.30
31.293	31.582	277.18
31.312	31.528	659.26
31.453	31.579	415.30
31.594	31.796	622.25
31.608	31.735	261.63
31.764	31.847	415.30
31.892	31.995	587.33
31.938	32.011	246.94
32.071	32.147	415.30
32.208	32.466	220.00
32.349	32.609	277.18
32.952	33.347	110.00
33.265	33.397	220.00
33.420	33.505	415.30
33.546	33.731	293.66
33.717	33.797	415.30
34.013	34.102	164.81
34.158	34.340	110.00
34.750	34.943	277.18
35.204	35.517	220.00
35.386	35.469	659.26
35.405	35.708	277.18
35.486	35.747	329.63
35.729	35.796	440.00
35.821	36.091	440.00
35.857	35.969	1108.73
35.951	36.089	554.37
36.120	36.306	440.00
36.254	36.405	554.37
36.396	36.531	830.61
36.549	36.736	659.26
36.700	36.854	739.99
36.708	36.826	246.94
36.841	37.006	622.25
36.978	37.242	329.63
36.998	37.308	415.30
37.006	37.207	659.26
37.279	37.539	174.61
37.282	37.586	207.65
37.289	37.631	185.00
37.464	37.554	415.30
37.580	37.925	164.81
37.604	37.770	329.63
37.643	37.921	207.65
37.764	37.862	415.30
37.877	38.021	146.83
37.883	38.089	311.13
37.885	38.263	155.56
38.063	38.419	415.30
38.109	38.162	466.16
38.159	38.352	130.81
38.172	38.473	138.59
38.185	38.455	329.63
38.185	38.233	311.13
38.343	38.599	277.18
38.465	39.015	130.81
38.467	38.692	329.63
38.480	38.552	123.47
38.622	38.688	123.47
38.637	38.999	415.30
38.664	38.740	392.00
38.776	39.076	138.59
38.782	39.027	329.63
38.944	39.183	277.18
39.075	39.356	164.81
39.075	39.272	329.63
39.230	39.393	440.00
39.372	39.886	130.81
39.374	39.900	311.13
39.375	39.452	293.66
39.386	39.476	123.47
39.452	39.536	392.00
39.495	39.557	293.66
39.518	39.579	123.47
39.552	39.764	261.63
39.676	39.777	146.83
39.688	39.947	155.56
39.694	39.756	466.16
39.803	39.865	146.83
39.833	40.023	440.00
39.977	40.237	311.13
39.982	40.217	207.65
40.135	40.320	261.63
40.273	40.776	130.81
40.276	40.549	311.13
40.283	40.383	123.47
40.342	40.546	392.00
40.435	40.825	415.30
40.575	40.876	138.59
40.724	40.966	329.63
40.875	41.144	155.56
40.878	40.984	146.83
40.880	41.147	415.30
40.910	41.060	466.16
41.006	41.079	146.83
41.039	41.212	659.26
41.174	41.545	164.81
41.186	41.456	415.30
41.200	41.252	329.63
41.249	41.305	493.88
41.334	41.603	329.63
41.470	41.820	138.59
41.470	41.611	130.81
41.502	41.651	415.30
41.645	41.829	554.37
41.776	42.035	155.56
41.781	41.874	146.83
41.784	42.020	440.00
41.909	41.983	146.83
41.926	42.226	415.30
42.074	42.350	220.00
42.095	42.365	369.99
42.106	42.250	440.00
42.218	42.275	207.65
42.237	42.419	554.37
42.374	42.678	523.25
42.379	42.628	207.65
42.543	42.763	369.99
42.666	42.902	174.61
42.671	42.956	185.00
42.682	42.986	415.30
42.829	43.175	523.25
42.981	43.237	164.81
42.991	43.527	554.37
43.002	43.132	493.88
43.057	43.132	1108.73
43.131	43.402	415.30
43.284	43.529	155.56
43.286	43.355	146.83
43.311	43.479	466.16
43.418	43.482	146.83
43.433	43.834	659.26
43.567	43.877	138.59
43.570	43.776	130.81
43.685	44.066	415.30
43.867	44.219	123.47
43.869	43.922	130.81
43.884	44.123	659.26
43.884	44.053	116.54
43.942	44.028	369.99
44.030	44.124	783.99
44.030	44.248	830.61
44.172	44.440	659.26
44.173	44.499	110.00
44.175	44.238	116.54
44.190	44.274	698.46
44.197	44.248	155.56
44.327	44.406	415.30
44.338	44.617	440.00
44.451	44.595	880.00
44.469	44.757	659.26
44.490	44.848	92.50
44.500	44.689	277.18
44.619	44.817	830.61
44.639	44.922	103.83
44.645	44.720	311.13
44.770	44.828	116.54
44.774	44.843	130.81
44.779	45.090	110.00
44.780	45.106	587.33
44.784	44.863	554.37
44.791	44.858	155.56
44.811	44.909	659.26
44.935	45.012	1174.66
44.941	45.195	739.99
45.080	45.444	92.50
45.085	45.316	554.37
45.126	45.228	830.61
45.230	45.501	659.26
45.380	45.650	523.25
45.383	45.436	164.81
45.385	45.701	103.83
45.406	45.644	311.13
45.527	45.735	622.25
45.678	45.940	92.50
45.685	45.965	554.37
45.723	45.828	830.61
45.831	46.015	659.26
45.835	45.994	82.41
45.841	46.001	164.81
45.885	45.943	1046.50
45.974	46.062	146.83
45.976	46.165	622.25
45.977	46.306	77.78
45.993	46.226	155.56
46.071	46.198	233.08
46.102	46.185	146.83
46.149	46.296	739.99
46.275	46.556	523.25
46.280	46.672	103.83
46.335	46.391	739.99
46.428	46.623	622.25
46.569	46.692	130.81
46.588	46.891	138.59
46.590	46.820	659.26
46.609	46.850	69.30
46.753	46.928	554.37
46.893	47.329	103.83
46.893	47.075	493.88
46.912	47.048	311.13
47.038	47.220	440.00
47.183	47.551	116.54
47.195	47.398	415.30
47.357	47.492	369.99
47.482	47.989	130.81
47.502	47.667	329.63
47.640	47.824	311.13
47.807	47.958	138.59
47.856	47.957	329.63
47.960	48.014	277.18
47.964	48.034	138.59
48.432	48.554	329.63
48.546	48.694	277.18
48.703	48.857	138.59
48.748	48.820	329.63
48.868	48.985	138.59
48.993	49.186	311.13
48.995	49.363	123.47
49.276	49.476	311.13
49.580	49.773	311.13
49.879	50.075	311.13
49.897	50.240	123.47
50.067	50.148	415.30
50.216	50.362	110.00
50.298	50.368	415.30
50.352	50.490	277.18
50.488	50.864	138.59
50.792	51.154	123.47
50.942	51.122	311.13
51.116	51.221	110.00
51.297	51.360	110.00
51.413	51.502	415.30
51.420	51.674	103.83
51.565	51.694	329.63
51.694	52.055	123.47
51.720	51.812	415.30
52.009	52.125	415.30
52.160	52.298	329.63
52.317	52.404	415.30
52.326	52.567	103.83
52.604	52.762	392.00
52.615	52.725	82.41
52.790	52.885	329.63
52.903	53.064	392.00
53.059	53.168	466.16
53.202	53.477	138.59
53.207	53.365	659.26
53.352	53.490	466.16
53.482	53.841	130.81
53.509	53.660	659.26
53.780	54.167	123.47
53.805	53.956	622.25
54.091	54.259	622.25
54.114	54.366	185.00
54.568	54.686	659.26
54.695	55.065	123.47
54.851	54.997	622.25
55.005	55.367	130.81
55.323	55.531	138.59
55.618	55.745	329.63
55.623	55.738	103.83
55.773	55.856	103.83
55.896	56.068	277.18
56.107	56.158	110.00
56.187	56.489	123.47
56.367	56.450	415.30
56.519	56.655	329.63
56.793	57.144	123.47
57.093	57.271	311.13
57.386	57.704	123.47
57.546	57.713	311.13
58.023	58.096	415.30
58.307	58.437	138.59
58.335	58.437	329.63
58.631	58.704	415.30
58.775	58.900	329.63
58.938	58.992	415.30
59.198	59.470	174.61
59.207	59.312	415.30
59.355	59.472	622.25
59.499	59.630	415.30
59.817	59.930	185.00
59.946	60.122	277.18
60.447	60.664	103.83
60.717	60.782	110.00