1.127	3.345	659.26
1.259	1.509	1975.53
1.335	1.421	1318.51
1.613	1.862	1318.51
1.877	1.957	1318.51
1.892	1.963	1975.53
2.031	2.097	1318.51
2.399	2.467	1318.51
2.601	2.673	1318.51
2.785	2.850	1318.51
3.677	3.963	698.46
3.951	4.202	659.26
4.230	4.303	587.33
4.538	5.100	493.88
4.874	4.957	2489.02
4.927	5.034	2959.96
5.103	5.673	440.00
5.680	6.289	440.00
6.095	6.168	1318.51
6.249	6.911	415.30
6.829	8.945	440.00
7.253	7.328	1318.51
7.451	7.611	1318.51
8.856	9.153	493.88
9.149	9.395	523.25
9.476	9.673	1174.66
9.488	9.693	587.33
9.733	10.309	659.26
9.898	10.165	1975.53
9.982	10.060	1318.51
10.292	11.177	698.46
11.160	11.410	659.26
11.443	11.986	587.33
11.499	11.985	1174.66
12.071	12.283	523.25
12.329	12.568	493.88
12.610	13.753	493.88
13.413	13.564	2489.02
13.761	14.063	440.00
14.037	14.396	415.30
14.329	14.954	440.00
14.753	14.827	1318.51
14.903	16.141	415.30
15.386	15.457	2959.96
15.497	15.572	1244.51
15.592	15.666	2959.96
15.699	15.764	1244.51
15.796	15.854	2959.96
15.891	15.965	1244.51
16.071	16.635	369.99
16.157	16.587	739.99
16.502	16.581	2959.96
16.678	17.271	329.63
16.907	17.220	987.77
17.057	17.147	2959.96
17.214	18.232	293.66
18.077	18.415	349.23
18.375	18.669	329.63
18.465	18.608	987.77
18.652	19.013	293.66
18.885	18.978	277.18
18.955	19.287	261.63
19.035	19.182	783.99
19.213	19.305	277.18
19.236	19.433	293.66
19.375	19.545	246.94
19.529	19.860	261.63
19.878	20.065	220.00
19.905	20.070	440.00
20.145	20.425	261.63
20.234	20.329	783.99
20.416	20.653	329.63
20.488	20.618	987.77
20.669	21.039	440.00
21.000	21.228	523.25
21.294	21.547	659.26
21.543	21.797	698.46
21.884	23.575	698.46
22.003	22.098	3520.00
22.019	22.101	2793.83
22.130	22.627	3520.00
22.271	22.413	2093.00
22.272	22.342	2793.83
22.709	22.969	3520.00
22.788	22.862	2093.00
22.829	22.912	2793.83
23.046	23.188	3520.00
23.091	23.142	2793.83
23.296	23.405	3520.00
23.324	23.387	2793.83
23.437	23.512	1396.91
23.569	23.860	659.26
23.852	24.145	698.46
24.019	24.070	3520.00
24.136	25.018	783.99
24.270	24.341	2349.32
24.458	24.860	2349.32
24.479	24.929	3135.96
24.530	24.645	3951.07
24.594	24.711	1567.98
24.649	24.927	3951.07
25.009	25.306	698.46
25.172	25.229	3520.00
25.297	25.824	659.26
25.595	25.821	1975.53
25.738	25.809	1318.51
25.890	26.112	1174.66
25.951	26.105	2959.96
26.032	26.097	587.33
26.180	26.414	523.25
26.463	27.586	523.25
26.767	27.263	3135.96
27.333	27.396	1046.50
27.347	27.494	3135.96
27.595	27.937	466.16
27.889	28.236	440.00
28.176	28.824	466.16
28.754	30.587	440.00
30.382	30.440	415.30
30.524	31.136	880.00
30.571	30.820	3520.00
30.830	31.009	3520.00
31.055	31.369	783.99
31.127	31.297	3135.96
31.160	31.268	2349.32
31.355	31.954	698.46
31.932	32.182	659.26
32.211	32.762	587.33
32.269	32.756	1174.66
32.672	32.729	2959.96
32.824	33.086	659.26
33.130	33.345	523.25
33.386	33.798	493.88
33.795	33.974	392.00
33.932	34.326	440.00
34.239	34.538	493.88
34.534	34.782	523.25
34.860	35.057	1174.66
34.868	35.122	587.33
35.113	35.210	659.26
35.246	35.352	698.46
35.383	35.572	783.99
35.542	35.686	493.88
35.686	37.437	523.25
36.001	36.496	3135.96
36.558	36.630	1046.50
36.576	36.724	3135.96
36.780	36.957	3135.96
36.791	36.854	1046.50
36.997	37.166	3135.96
37.012	37.099	1046.50
37.232	37.345	3135.96
37.427	37.710	493.88
37.699	37.952	523.25
38.033	39.661	1174.66
38.049	38.547	587.33
38.441	39.211	2959.96
38.566	38.629	1760.00
38.628	38.701	587.33
38.671	38.906	1760.00
38.759	38.829	587.33
38.902	39.765	587.33
39.250	39.386	2959.96
39.710	40.314	392.00
40.009	40.089	3135.96
40.293	40.728	349.23
40.677	41.079	329.63
40.931	41.023	987.77
41.061	41.454	293.66
41.451	41.918	440.00
41.821	42.234	392.00
42.219	42.673	349.23
42.607	43.393	329.63
42.697	43.273	987.77
43.323	43.493	392.00
43.450	43.634	440.00
43.609	43.762	493.88
43.777	44.448	523.25
43.989	44.201	1046.50
44.164	44.409	3135.96
44.288	44.354	1046.50
44.477	44.648	392.00
44.605	44.783	440.00
44.766	44.910	493.88
44.933	45.001	523.25
45.210	45.755	659.26
45.497	45.723	1975.53
45.642	45.710	1318.51
45.795	46.066	493.88
46.082	46.331	523.25
46.414	46.595	1174.66
46.434	46.586	2959.96
46.511	46.581	587.33
46.652	46.892	659.26
46.951	47.065	783.99
47.061	47.182	739.99
47.215	47.819	739.99
47.314	47.741	2959.96
47.789	48.424	880.00
47.879	48.315	3520.00
48.366	48.944	1046.50
48.486	48.900	3135.96
48.934	49.238	1174.66
49.238	49.480	2959.96
49.242	49.565	987.77
49.318	49.473	3951.07
49.531	50.135	1046.50
49.640	49.725	3135.96
49.752	50.056	3135.96
50.116	50.402	698.46
50.396	50.684	659.26
50.677	51.851	698.46
50.846	50.938	3520.00
50.858	50.943	2793.83
50.985	51.526	3520.00
51.126	51.259	2093.00
51.553	51.775	3520.00
51.633	51.709	2093.00
51.674	51.766	2793.83
51.837	52.941	659.26
52.134	52.931	1975.53
52.278	52.387	1318.51
53.625	54.110	880.00
53.719	54.082	2637.02