1.019	1.192	587.33
1.024	1.083	1174.66
1.079	1.134	2349.32
1.376	1.609	587.33
1.401	1.518	1174.66
1.426	1.493	2959.96
1.768	1.943	587.33
1.773	1.834	1174.66
2.129	2.358	587.33
2.148	2.277	1174.66
2.176	2.242	2959.96
2.509	2.677	523.25
2.693	2.865	466.16
2.715	2.831	1864.66
2.883	3.065	523.25
3.241	3.675	440.00
3.325	3.405	1318.51
3.663	3.978	466.16
4.001	4.305	392.00
4.047	4.152	1975.53
4.364	4.662	392.00
4.380	4.600	622.25
4.400	4.494	1244.51
4.414	4.471	2489.02
4.748	5.043	392.00
5.122	5.432	392.00
5.158	5.501	440.00
5.170	5.283	1975.53
5.494	5.817	349.23
5.536	5.589	1046.50
5.728	5.961	311.13
5.865	6.191	349.23
5.900	6.064	587.33
5.904	5.969	1174.66
6.244	6.763	293.66
6.290	6.380	1174.66
6.646	6.782	1174.66
6.650	6.824	587.33
6.664	6.953	311.13
6.675	6.740	2959.96
6.745	6.793	622.25
7.009	7.226	783.99
7.377	7.688	311.13
7.383	7.635	783.99
7.386	7.547	523.25
7.392	7.467	3135.96
7.416	7.513	2349.32
7.746	7.979	783.99
8.121	8.613	293.66
8.131	8.391	783.99
8.161	8.280	1174.66
8.163	8.480	466.16
8.522	8.703	698.46
8.607	8.707	1396.91
8.695	8.889	622.25
8.718	8.796	1244.51
8.867	9.194	293.66
8.869	9.289	440.00
8.898	9.075	698.46
8.904	9.010	1174.66
8.909	9.078	1396.91
8.972	9.028	1318.51
9.261	9.469	587.33
9.274	9.400	1174.66
9.299	9.369	2959.96
9.627	9.914	392.00
9.632	9.849	622.25
9.650	9.742	1244.51
9.662	9.719	2489.02
10.005	10.280	196.00
10.005	10.186	392.00
10.033	10.117	987.77
10.377	10.656	261.63
10.428	10.485	783.99
10.600	10.877	466.16
10.742	11.111	440.00
10.826	10.905	1318.51
10.973	11.133	466.16
11.036	11.173	523.25
11.126	11.404	369.99
11.133	11.384	261.63
11.157	11.275	1479.98
11.161	11.251	783.99
11.520	11.691	587.33
11.525	11.579	1174.66
11.876	12.220	233.08
11.879	12.102	392.00
11.884	12.080	587.33
11.895	12.017	466.16
11.912	11.988	2959.96
11.920	11.972	1174.66
12.266	12.442	587.33
12.272	12.328	1174.66
12.632	12.830	587.33
12.636	12.946	329.63
12.644	12.892	440.00
12.648	12.762	1174.66
12.656	12.971	220.00
12.664	12.761	987.77
12.706	12.776	1567.98
13.009	13.176	523.25
13.194	13.362	466.16
13.216	13.330	1864.66
13.369	13.690	293.66
13.378	13.667	369.99
13.394	13.548	523.25
13.409	13.503	1174.66
13.743	14.175	440.00
13.823	13.911	1318.51
14.128	14.331	196.00
14.128	14.427	392.00
14.152	14.265	987.77
14.160	14.477	466.16
14.182	14.272	1975.53
14.494	14.823	349.23
14.537	14.596	1046.50
14.725	14.966	311.13
14.756	14.809	1244.51
14.859	15.200	349.23
14.877	15.136	932.33
14.897	15.063	587.33
14.898	14.970	1174.66
14.916	14.970	1046.50
15.240	15.573	293.66
15.284	15.378	1174.66
15.625	15.831	932.33
15.633	15.931	311.13
15.636	15.799	523.25
15.662	15.732	1244.51
16.031	16.217	880.00
16.203	16.440	783.99
16.219	16.336	2349.32
16.220	16.289	3135.96
16.238	16.291	3951.07
16.399	16.595	880.00
16.574	16.848	739.99
16.760	16.976	783.99
17.119	17.632	293.66
17.137	17.438	739.99
17.139	17.307	523.25
17.164	17.265	1174.66
17.331	17.530	622.25
17.515	17.693	587.33
17.519	17.654	1174.66
17.552	17.614	2959.96
17.698	17.865	523.25
17.882	18.053	466.16
17.904	18.017	1864.66
18.071	18.279	783.99
18.242	18.607	440.00
18.325	18.407	1318.51
18.440	18.656	392.00
18.621	19.128	293.66
18.672	18.753	1174.66
18.846	19.069	440.00
19.000	19.387	554.37
19.028	19.145	1108.73
19.228	19.383	659.26
19.234	19.356	1975.53
19.258	19.361	1318.51
19.390	19.734	698.46
19.592	19.778	880.00
19.757	19.957	587.33
19.772	19.898	1174.66
19.800	19.867	2959.96
19.948	20.116	523.25
20.138	20.358	493.88
20.162	20.217	1479.98
20.163	20.214	1975.53
20.332	20.502	587.33
20.393	20.448	2349.32
20.524	20.846	698.46
20.698	20.933	830.61
20.715	20.848	2489.02
20.890	20.979	3135.96
20.891	21.122	783.99
20.906	21.026	2349.32
20.926	20.980	3951.07
21.070	21.148	1396.91
21.096	21.254	698.46
21.173	21.275	1396.91
21.257	21.463	622.25
21.280	21.356	1244.51
21.460	21.624	587.33
21.462	21.520	1174.66
21.625	21.835	622.25
21.652	21.741	1244.51
21.665	21.722	2489.02
21.814	22.042	392.00
22.001	22.232	523.25
22.207	22.377	587.33
22.210	22.262	1174.66
22.382	22.597	622.25
22.407	22.490	1244.51
22.408	22.466	2489.02
22.573	22.775	783.99
22.752	22.986	523.25
22.971	23.253	466.16
23.115	23.484	440.00
23.201	23.281	1318.51
23.320	23.510	523.25
23.507	23.717	622.25
23.532	23.609	1244.51
23.696	23.906	783.99
23.893	24.222	698.46
24.076	24.277	622.25
24.114	24.166	1244.51
24.254	24.455	587.33
24.276	24.397	1174.66
24.447	24.619	523.25
24.628	24.831	587.33
24.647	24.776	1174.66
24.679	24.742	2959.96
24.839	25.069	440.00
25.004	25.178	466.16
25.027	25.144	1864.66
25.196	25.411	369.99
25.243	25.321	1479.98
25.376	25.611	392.00
25.421	25.530	1975.53
25.596	25.886	466.16
25.754	25.960	587.33
25.784	25.894	1174.66
25.803	25.864	2959.96
25.968	26.208	349.23
26.114	26.395	329.63
26.143	26.230	987.77
26.314	26.533	392.00
26.504	26.678	466.16
26.528	26.643	1864.66
26.709	26.875	587.33
26.713	26.766	1174.66
26.876	27.118	523.25
27.095	27.320	440.00
27.252	27.428	466.16
27.276	27.394	1864.66
27.440	27.659	392.00
27.627	27.885	369.99
27.660	27.783	1479.98
27.849	28.082	440.00
28.004	28.233	523.25
28.201	28.403	622.25
28.380	28.581	587.33
28.397	28.517	1174.66
28.429	28.490	2959.96
28.570	28.743	523.25
28.755	28.929	466.16
28.778	28.893	1864.66
28.972	29.198	440.00
29.128	29.305	466.16
29.151	29.270	1864.66
29.314	29.530	392.00
29.504	29.709	587.33
29.524	29.646	1174.66
29.551	29.618	2959.96
29.719	29.963	349.23
29.878	30.167	311.13
29.911	30.015	622.25
30.084	30.253	587.33
30.144	30.199	2349.32
30.262	30.500	783.99
30.267	30.360	3135.96
30.289	30.387	2349.32
30.445	30.609	523.25
30.630	30.852	587.33
30.649	30.939	739.99
30.657	30.777	1174.66
30.676	30.737	2959.96
30.993	31.523	293.66
31.033	31.131	1174.66
31.378	31.674	392.00
31.389	31.662	932.33
31.395	31.518	2793.83
31.397	31.582	587.33
31.397	31.499	1174.66
31.739	32.068	392.00
31.741	32.017	932.33
31.772	31.942	587.33
31.797	31.900	1975.53
32.130	32.376	523.25
32.137	32.300	932.33
32.149	32.265	2793.83
32.156	32.476	311.13
32.194	32.288	1244.51
32.515	32.726	880.00
32.579	32.645	3520.00
32.698	32.893	783.99
32.872	33.186	349.23
32.884	33.058	523.25
32.891	33.096	880.00
32.955	33.018	3520.00
33.254	33.494	523.25
33.277	33.565	349.23
33.277	33.475	880.00
33.623	34.126	293.66
33.633	33.888	830.61
33.655	33.753	2489.02
33.662	33.984	466.16
33.681	33.763	1174.66
33.821	34.037	783.99
33.999	34.264	830.61
34.026	34.139	2489.02
34.206	34.442	739.99
34.376	34.680	311.13
34.392	34.742	466.16
34.393	34.637	783.99
34.400	34.471	3135.96
34.421	34.514	2349.32
34.422	34.510	1244.51
34.741	35.065	293.66
34.764	35.023	493.88
34.771	34.956	1396.91
34.777	34.952	698.46
34.780	34.900	1174.66
34.794	34.850	2093.00
35.130	35.437	261.63
35.133	35.352	392.00
35.135	35.347	622.25
35.161	35.238	1244.51
35.165	35.216	2489.02
35.346	35.801	349.23
35.355	35.447	622.25
35.521	35.683	587.33
35.530	35.590	1174.66
35.690	36.157	311.13
35.722	35.825	622.25
35.885	36.133	523.25
35.950	36.008	1244.51
36.055	36.625	293.66
36.095	36.180	1174.66
36.288	36.597	466.16
36.311	36.398	1174.66
36.437	36.831	261.63
36.624	36.883	415.30
36.652	36.746	1244.51
36.654	36.743	293.66
36.824	37.252	369.99
36.861	36.944	1479.98
37.035	37.156	1479.98
37.192	37.606	392.00
37.418	37.528	1975.53
37.583	37.816	233.08
37.779	38.019	440.00
37.782	38.000	220.00
37.832	37.890	1567.98
37.943	38.134	392.00
37.944	38.126	196.00
37.969	38.055	987.77
38.141	38.382	440.00
38.161	38.382	220.00
38.313	38.548	392.00
38.504	38.732	523.25
38.702	38.893	622.25
38.748	38.844	1244.51
38.870	39.360	293.66
38.918	39.007	1174.66
39.064	39.283	392.00
39.245	39.593	440.00
39.317	39.412	1318.51
39.446	39.677	369.99
39.496	39.568	1479.98
39.631	39.931	196.00
39.646	39.721	783.99
39.648	39.775	987.77
39.707	39.929	392.00
40.008	40.295	1174.66
40.368	40.596	1174.66
40.753	41.037	1174.66
41.055	41.343	1174.66
41.504	41.684	1046.50
41.701	41.949	932.33
41.710	41.831	2793.83
41.884	42.059	1046.50
42.284	42.490	880.00
42.624	42.897	932.33
43.009	43.228	783.99
43.382	43.663	1244.51
43.388	43.642	783.99
43.397	43.480	3135.96
43.424	43.482	3951.07
43.429	43.516	2349.32
43.740	44.025	783.99
43.786	43.852	3135.96
43.794	43.898	2349.32
43.801	43.854	3951.07
44.114	44.357	783.99
44.141	44.352	880.00
44.198	44.248	1567.98
44.201	44.272	3520.00
44.520	44.701	698.46
44.608	44.710	1396.91
44.693	44.896	622.25
44.717	44.804	1244.51
44.722	44.780	2489.02
44.883	45.171	1174.66
44.892	45.082	1396.91
44.908	45.045	698.46
44.911	45.058	2093.00
45.266	45.317	1174.66
45.269	45.442	587.33
45.325	45.387	2349.32
45.633	45.916	622.25
45.660	45.735	1244.51
46.004	46.184	1046.50
46.012	46.218	622.25
46.037	46.157	1244.51
46.207	46.373	587.33
46.212	46.271	1174.66
46.371	46.599	1046.50
46.377	46.584	622.25
46.404	46.493	1244.51
46.608	46.672	622.25
46.750	46.958	1046.50
46.779	46.878	3135.96
46.779	47.070	698.46
46.941	47.147	622.25
46.962	47.056	1244.51
46.975	47.033	2489.02
47.122	47.309	1046.50
47.145	47.317	587.33
47.148	47.199	1174.66
47.514	47.762	932.33
47.519	47.644	2793.83
47.703	47.926	880.00
47.766	47.832	3520.00
47.875	48.143	932.33
47.885	48.104	783.99
48.253	48.479	783.99
48.630	48.902	783.99
48.650	48.728	3135.96
48.655	48.866	880.00
48.657	48.774	2349.32
48.675	48.730	3951.07
49.013	49.437	698.46
49.382	49.739	1174.66
49.400	49.592	1396.91
49.422	49.558	2093.00
49.454	49.519	698.46
49.769	49.932	698.46
49.855	49.956	1396.91
50.136	50.354	783.99
50.153	50.507	698.46
50.507	50.715	622.25
50.535	50.611	1244.51
50.536	50.588	2489.02
50.708	50.874	587.33
50.768	50.822	2349.32
50.878	51.094	1046.50
50.879	51.095	622.25
50.908	50.984	1244.51
51.096	51.171	622.25
51.253	51.510	523.25
51.646	51.818	587.33
51.648	51.706	1174.66
52.005	52.206	587.33
52.013	52.290	932.33
52.020	52.144	2793.83
52.024	52.151	1174.66
52.189	52.424	523.25
52.366	52.646	932.33
52.395	52.566	587.33
52.396	52.459	1174.66
52.458	52.514	2349.32
52.747	53.015	932.33
52.766	52.968	622.25
52.766	52.920	1244.51
52.957	53.125	587.33
53.019	53.071	2349.32
53.129	53.386	523.25
53.136	53.411	932.33
53.142	53.271	2793.83
53.518	53.726	880.00
53.580	53.649	3520.00
53.695	53.905	783.99
53.894	54.255	698.46
53.900	54.107	880.00
54.250	54.493	932.33
54.470	54.654	880.00
54.635	54.855	783.99
54.654	54.998	698.46
55.006	55.215	622.25
55.030	55.091	2489.02
55.033	55.114	1244.51
55.207	55.375	587.33
55.270	55.323	2349.32
55.378	55.670	622.25
55.380	55.596	1046.50
55.405	55.463	2489.02
55.412	55.487	1244.51
55.414	55.462	3135.96
55.773	56.085	698.46
55.950	56.150	622.25
55.982	56.047	1244.51
56.128	56.349	1046.50
56.128	56.350	587.33
56.151	56.265	1174.66
56.157	56.241	3135.96
56.178	56.238	2959.96
56.500	56.745	932.33
56.719	56.911	880.00
56.887	57.085	932.33
56.888	57.146	783.99
56.897	57.020	2793.83
56.905	56.973	3135.96
56.915	57.018	2349.32
56.921	56.981	3951.07
57.089	57.165	932.33
57.164	57.226	783.99
57.257	57.433	1046.50
57.448	57.697	932.33
57.457	57.581	2793.83
57.635	57.893	783.99
57.647	57.730	3135.96
57.659	57.865	880.00
57.660	57.770	2349.32
57.910	57.974	783.99
58.021	58.339	698.46
58.215	58.373	659.26
58.244	58.349	1975.53
58.278	58.357	1318.51
58.364	58.760	698.46
58.388	58.594	1174.66
58.765	58.996	783.99
58.785	58.852	3135.96
58.793	58.898	2349.32
58.800	58.854	3951.07
58.952	59.023	1396.91
58.961	59.118	698.46
59.044	59.153	1396.91
59.133	59.288	659.26
59.137	59.261	1975.53
59.142	59.343	1174.66
59.156	59.246	1318.51
59.494	61.000	440.00
59.574	59.663	1318.51
59.883	60.099	1046.50
59.891	60.056	659.26
59.892	60.017	1975.53
59.907	59.983	3135.96
60.324	60.408	1318.51
60.634	60.845	587.33
60.642	60.838	1396.91
60.646	60.780	1174.66
60.654	60.831	698.46
60.674	60.736	2093.00
60.677	60.736	2959.96