1.002	1.347	233.08
1.054	1.110	1174.66
1.368	1.649	293.66
1.406	1.524	1174.66
1.494	1.772	349.23
1.789	1.984	311.13
1.871	2.186	293.66
1.918	2.009	1174.66
2.014	2.186	261.63
2.125	2.409	233.08
2.250	2.347	293.66
2.264	2.788	932.33
2.281	2.439	587.33
2.323	2.384	2349.32
2.370	2.427	466.16
2.505	2.702	587.33
2.519	2.637	2793.83
2.519	2.649	1174.66
2.537	2.771	349.23
2.755	2.996	523.25
2.786	2.981	880.00
3.006	3.178	466.16
3.009	3.224	783.99
3.026	3.142	1864.66
3.244	3.468	783.99
3.257	3.431	466.16
3.277	3.392	1864.66
3.492	3.867	440.00
3.515	3.709	698.46
3.560	3.651	1318.51
3.605	3.707	1396.91
3.751	4.050	311.13
3.790	3.890	622.25
3.994	4.302	293.66
4.029	4.121	1174.66
4.253	4.500	523.25
4.271	4.464	1396.91
4.279	4.438	698.46
4.307	4.414	3520.00
4.505	4.679	466.16
4.514	4.723	783.99
4.526	4.642	1864.66
4.751	5.061	261.63
4.792	4.860	783.99
5.003	5.206	622.25
5.033	5.353	440.00
5.046	5.097	2489.02
5.142	5.296	523.25
5.258	5.589	233.08
5.258	5.466	587.33
5.259	5.481	466.16
5.281	5.377	1174.66
5.283	5.364	2959.96
5.533	5.778	349.23
5.760	5.927	466.16
5.769	5.919	587.33
5.780	5.892	1864.66
5.897	6.140	698.46
6.016	6.188	622.25
6.136	6.275	466.16
6.141	6.291	587.33
6.167	6.262	1864.66
6.243	6.794	440.00
6.260	6.433	523.25
6.313	6.406	1318.51
6.536	6.798	220.00
6.579	6.644	1567.98
6.764	7.000	261.63
6.791	6.839	1567.98
6.996	7.283	349.23
7.256	7.440	523.25
7.281	7.455	440.00
7.378	7.579	392.00
7.383	7.538	466.16
7.404	7.514	1864.66
7.500	7.741	523.25
7.527	7.798	440.00
7.589	7.668	1318.51
7.788	8.063	311.13
7.992	8.298	440.00
8.008	8.180	523.25
8.057	8.162	1318.51
8.249	8.626	293.66
8.255	8.314	466.16
8.268	8.611	698.46
8.292	8.439	493.88
8.321	8.374	1174.66
8.324	8.387	2793.83
8.515	8.729	261.63
8.634	8.715	293.66
8.754	8.944	392.00
8.765	8.932	622.25
8.794	8.898	1975.53
8.869	9.123	349.23
8.900	9.029	587.33
8.997	9.296	233.08
8.999	9.223	392.00
9.002	9.230	622.25
9.019	9.069	466.16
9.019	9.084	1244.51
9.269	9.447	440.00
9.283	9.407	220.00
9.378	9.606	261.63
9.533	9.741	349.23
9.617	9.854	440.00
9.701	9.818	523.25
9.758	9.963	622.25
9.886	10.069	783.99
9.997	10.515	293.66
10.023	10.283	698.46
10.040	10.258	466.16
10.269	10.430	622.25
10.389	10.531	587.33
10.401	10.522	1174.66
10.429	10.488	2959.96
10.507	10.692	523.25
10.535	10.810	311.13
10.648	10.846	466.16
10.744	11.036	349.23
10.770	10.938	587.33
10.783	10.841	1174.66
10.786	10.855	1046.50
11.003	11.322	311.13
11.012	11.127	523.25
11.039	11.289	622.25
11.075	11.198	587.33
11.082	11.192	1174.66
11.244	11.520	349.23
11.265	11.439	587.33
11.287	11.343	1174.66
11.492	11.802	293.66
11.501	11.842	233.08
11.505	11.558	440.00
11.507	11.647	466.16
11.544	11.631	1864.66
11.863	12.148	293.66
11.916	11.990	1174.66
11.992	12.271	349.23
12.288	12.485	311.13
12.372	12.687	293.66
12.411	12.505	1174.66
12.513	12.686	261.63
12.626	12.909	233.08
12.748	12.847	293.66
12.771	13.289	932.33
12.782	12.938	587.33
12.824	12.884	2349.32
12.870	12.925	466.16
13.004	13.208	587.33
13.015	13.143	2793.83
13.022	13.147	1174.66
13.037	13.276	349.23
13.257	13.494	523.25
13.286	13.480	880.00
13.382	13.540	466.16
13.402	13.512	1864.66
13.520	13.805	440.00
13.618	13.666	1318.51
13.752	13.948	392.00
13.795	13.899	1975.53
13.887	14.063	369.99
13.927	14.009	1479.98
13.991	14.248	329.63
14.011	14.115	987.77
14.117	14.398	293.66
14.171	14.232	1174.66
14.258	14.501	523.25
14.292	14.480	880.00
14.485	14.793	293.66
14.501	14.752	523.25
14.503	14.720	392.00
14.511	14.815	196.00
14.523	14.624	987.77
14.524	14.597	1174.66
14.570	14.714	880.00
14.761	14.926	466.16
14.776	14.904	783.99
14.777	14.890	1864.66
14.875	15.072	392.00
14.913	15.020	1975.53
15.035	15.276	349.23
15.254	15.566	311.13
15.287	15.386	622.25
15.499	15.756	932.33
15.520	15.689	587.33
15.522	15.576	1174.66
15.579	15.640	2349.32
15.758	15.934	523.25
15.769	15.972	880.00
15.836	15.894	3520.00
15.993	16.305	293.66
16.027	16.110	1174.66
16.255	16.511	523.25
16.273	16.474	739.99
16.397	16.568	880.00
16.514	16.758	783.99
16.520	16.592	3135.96
16.536	16.834	466.16
16.542	16.637	2349.32
16.740	17.046	293.66
16.797	16.885	1174.66
17.006	17.178	466.16
17.007	17.198	783.99
17.026	17.129	1864.66
17.123	17.366	932.33
17.261	17.427	523.25
17.271	17.469	880.00
17.492	17.807	293.66
17.525	17.621	1174.66
17.753	17.998	523.25
17.794	17.942	880.00
17.878	18.271	932.33
18.023	18.187	587.33
18.026	18.082	1174.66
18.076	18.138	2349.32
18.133	18.403	1046.50
18.162	18.240	3135.96
18.257	18.430	622.25
18.282	18.357	1244.51
18.305	18.474	932.33
18.406	18.544	880.00
18.451	18.616	783.99
18.482	18.578	2349.32
18.525	18.685	739.99
18.564	18.674	1975.53
18.572	18.698	659.26
18.646	18.758	587.33
18.651	18.705	1174.66
18.691	18.853	523.25
18.776	19.070	466.16
18.790	19.064	440.00
18.880	18.944	1318.51
18.939	19.104	523.25
19.014	19.257	369.99
19.048	19.129	1479.98
19.257	19.506	1174.66
19.403	19.572	880.00
19.500	19.688	1046.50
19.752	19.962	392.00
19.876	20.122	932.33
20.027	20.198	880.00
20.136	20.204	1479.98
20.150	20.395	739.99
20.260	20.446	783.99
20.377	20.534	587.33
20.409	20.494	1174.66
20.502	20.755	392.00
20.516	20.720	261.63
20.520	20.772	622.25
20.538	20.585	1567.98
20.542	20.654	1975.53
20.573	20.646	1244.51
20.755	20.986	523.25
20.909	21.112	311.13
20.998	21.284	392.00
21.043	21.152	1975.53
21.281	21.491	349.23
21.379	21.639	311.13
21.411	21.514	622.25
21.494	21.770	293.66
21.536	21.668	1174.66
21.627	21.845	261.63
21.759	22.015	830.61
21.774	21.885	2489.02
21.776	21.903	523.25
21.990	22.292	293.66
22.010	22.242	523.25
22.020	22.295	739.99
22.031	22.121	1174.66
22.258	22.429	466.16
22.261	22.439	783.99
22.276	22.389	1864.66
22.379	22.543	587.33
22.415	22.521	1174.66
22.435	22.489	2959.96
22.506	22.696	622.25
22.513	22.744	369.99
22.533	22.606	1244.51
22.551	22.631	1479.98
22.646	22.797	587.33
22.751	23.226	392.00
22.794	22.900	1975.53
22.881	23.011	523.25
22.999	23.305	261.63
23.015	23.160	466.16
23.037	23.131	1864.66
23.164	23.331	440.00
23.240	23.447	392.00
23.247	23.799	293.66
23.379	23.583	369.99
23.449	23.511	1479.98
23.523	23.649	233.08
23.633	23.787	329.63
23.666	23.723	987.77
23.686	23.874	369.99
23.719	23.814	1479.98
23.753	23.924	392.00
23.804	23.993	440.00
23.868	23.940	1318.51
23.915	24.054	466.16
23.941	24.221	523.25
24.021	24.154	587.33
24.141	24.265	622.25
24.194	24.333	587.33
24.210	24.292	1174.66
24.261	24.516	261.63
24.268	24.367	783.99
24.496	24.876	293.66
24.514	24.658	523.25
24.547	24.661	1174.66
24.640	24.788	466.16
24.650	24.764	1864.66
24.778	24.954	440.00
24.876	25.304	392.00
24.889	25.042	293.66
24.919	25.012	1975.53
25.013	25.181	196.00
25.016	25.177	987.77
25.394	25.574	233.08
25.496	25.878	293.66
25.570	25.629	1174.66
25.764	25.935	261.63
25.786	25.833	1567.98
25.875	26.160	233.08
25.880	25.982	293.66
26.016	26.201	440.00
26.032	26.154	220.00
26.119	26.735	392.00
26.134	26.306	196.00
26.148	26.257	987.77
26.252	26.421	466.16
26.283	26.390	1864.66
26.493	26.812	293.66
26.530	26.824	466.16
26.544	26.647	1975.53
26.753	27.016	369.99
26.777	27.049	440.00
26.792	26.900	1479.98
26.883	27.138	311.13
26.922	27.008	622.25
26.991	27.300	293.66
27.037	27.118	1174.66
27.252	27.459	261.63
27.295	27.345	783.99
27.398	27.565	246.94
27.518	27.776	440.00
27.536	27.699	220.00
27.630	27.795	392.00
27.635	27.799	196.00
27.655	27.738	987.77
27.746	28.288	349.23
27.784	27.943	493.88
27.799	27.853	1046.50
28.011	28.065	466.16
28.039	28.198	493.88
28.043	28.108	1046.50
28.255	28.546	311.13
28.263	28.379	523.25
28.289	28.372	622.25
28.375	28.614	261.63
28.492	28.800	293.66
28.534	28.611	1174.66
28.745	29.042	349.23
28.913	29.110	311.13
28.996	29.314	293.66
29.037	29.130	1174.66
29.139	29.318	261.63
29.253	29.466	1046.50
29.264	29.791	622.25
29.286	29.362	1244.51
29.288	29.338	2489.02
29.366	29.441	293.66
29.486	29.695	1046.50
29.498	29.790	392.00
29.551	29.651	1975.53
29.752	29.997	932.33
29.770	29.891	587.33
29.777	29.829	1174.66
29.865	30.151	293.66
29.895	29.987	1174.66
29.997	30.276	392.00
30.048	30.154	1975.53
30.281	30.527	349.23
30.370	30.616	329.63
30.391	30.479	987.77
30.491	30.772	293.66
30.544	30.606	1174.66
30.628	30.869	261.63
30.755	31.254	932.33
30.797	30.954	659.26
30.818	30.872	1975.53
31.028	31.205	659.26
31.271	31.472	880.00
31.274	31.428	698.46
31.313	31.409	3520.00
31.343	31.464	1396.91
31.405	31.688	349.23
31.526	31.836	698.46
31.764	31.931	622.25
31.879	32.050	587.33
31.901	32.028	1174.66
31.930	31.989	2959.96
32.009	32.164	523.25
32.132	32.294	466.16
32.155	32.262	1864.66
32.258	32.772	830.61
32.268	32.442	587.33
32.276	32.381	2489.02
32.278	32.335	1174.66
32.334	32.383	2349.32
32.514	32.695	587.33
32.519	32.636	2489.02
32.765	33.014	783.99
32.765	33.002	622.25
32.779	32.891	1244.51
32.781	32.845	3135.96
32.797	32.891	2349.32
32.798	32.854	3951.07
32.897	33.083	233.08
33.006	33.294	311.13
33.012	33.141	622.25
33.243	33.514	293.66
33.284	33.417	1174.66
33.377	33.606	261.63
33.520	33.697	233.08
33.648	34.024	440.00
33.661	33.826	220.00
33.756	34.172	523.25
33.759	33.969	783.99
33.835	33.903	1318.51
33.997	34.359	293.66
34.031	34.340	698.46
34.067	34.138	2793.83
34.069	34.123	1174.66
34.257	34.424	392.00
34.259	34.411	196.00
34.282	34.374	987.77
34.388	34.544	293.66
34.389	34.595	783.99
34.410	34.471	3135.96
34.422	34.517	2349.32
34.515	34.699	587.33
34.535	34.929	466.16
34.537	34.636	1174.66
34.560	34.612	2959.96
34.766	34.868	783.99
34.767	34.978	261.63
34.770	35.015	622.25
34.833	34.898	1244.51
34.994	35.290	349.23
35.046	35.097	1046.50
35.131	35.291	523.25
35.244	35.679	440.00
35.273	35.447	698.46
35.320	35.400	1318.51
35.351	35.465	1396.91
35.507	35.806	233.08
35.510	35.693	622.25
35.514	35.587	466.16
35.547	35.769	349.23
35.547	35.616	1174.66
35.648	35.800	587.33
35.691	35.748	2349.32
35.751	35.979	392.00
35.763	35.926	622.25
35.793	35.904	1975.53
35.884	36.030	587.33
35.909	36.024	1174.66
35.931	35.991	2959.96
36.002	36.196	523.25
36.034	36.311	311.13
36.147	36.524	466.16
36.245	36.531	349.23
36.284	36.352	1046.50
36.370	36.651	440.00
36.414	36.528	1318.51
36.509	36.661	523.25
36.625	36.792	466.16
36.653	36.759	1864.66
36.768	36.920	587.33
36.833	36.885	2349.32
36.878	37.029	523.25
36.997	37.276	392.00
37.012	37.221	261.63
37.017	37.271	622.25
37.045	37.152	1975.53
37.386	37.609	783.99
37.400	37.467	3135.96
37.417	37.513	2349.32
37.505	37.721	1046.50
37.557	37.610	3135.96
37.748	37.996	932.33
37.903	38.070	880.00
38.010	38.233	783.99
38.030	38.094	3135.96
38.043	38.142	2349.32
38.046	38.103	3951.07
38.151	38.290	698.46
38.245	38.314	1396.91
38.257	38.461	622.25
38.270	38.553	440.00
38.278	38.359	1244.51
38.290	38.530	220.00
38.291	38.786	349.23
38.323	38.395	1567.98
38.490	38.756	622.25
38.520	38.774	233.08
38.533	38.595	466.16
38.533	38.586	1046.50
38.757	38.918	587.33
38.774	38.902	1174.66
38.804	38.863	2959.96
38.898	39.059	698.46
38.994	39.075	1396.91
38.998	39.259	932.33
39.260	39.432	830.61
39.275	39.407	2489.02
39.387	39.652	698.46
39.520	39.671	587.33
39.528	39.579	1174.66
39.577	39.640	2349.32
39.628	39.875	466.16
39.650	39.759	1864.66
39.743	40.017	349.23
39.761	40.027	830.61
39.774	39.942	587.33
39.775	39.857	1046.50
39.776	40.043	233.08
39.777	39.881	2489.02
39.788	39.858	1174.66
40.004	40.160	587.33
40.014	40.224	783.99
40.026	40.147	1174.66
40.035	40.318	311.13
40.065	40.114	2959.96
40.133	40.285	466.16
40.181	40.260	1864.66
40.259	40.411	523.25
40.366	40.647	440.00
40.420	40.533	1318.51
40.493	40.770	293.66
40.530	40.634	1174.66
40.645	40.918	698.46
40.761	40.914	523.25
40.867	41.195	440.00
40.929	41.028	1318.51
41.044	41.210	466.16
41.126	41.332	392.00
41.170	41.274	1975.53
41.250	41.328	1567.98
41.265	41.440	261.63
41.381	41.563	622.25
41.529	41.774	466.16
41.625	41.819	392.00
41.668	41.773	1975.53
41.788	41.967	440.00
41.869	42.170	349.23
41.922	41.970	1046.50
42.014	42.194	233.08
42.128	42.276	587.33
42.151	42.266	1174.66
42.178	42.241	2959.96
42.293	42.488	311.13
42.384	42.556	587.33
42.395	42.509	1174.66
42.430	42.487	2959.96
42.510	42.725	783.99
42.761	42.983	698.46
42.891	43.056	622.25
42.989	43.292	349.23
43.018	43.188	587.33
43.028	43.089	1174.66
43.036	43.085	1046.50
43.254	43.755	523.25
43.411	43.591	440.00
43.786	43.956	466.16
43.868	44.171	440.00
43.912	44.027	1318.51
44.004	44.203	392.00
44.119	44.407	349.23
44.253	44.744	523.25
44.285	44.561	311.13
44.492	44.802	293.66
44.525	44.642	1174.66
44.529	44.687	698.46
44.583	44.712	1396.91
44.886	45.111	783.99
44.898	44.968	3135.96
44.918	45.018	2349.32
45.024	45.207	698.46
45.121	45.207	1396.91
45.242	45.551	293.66
45.247	45.523	392.00
45.259	45.472	493.88
45.265	45.339	1174.66
45.266	45.435	196.00
45.273	45.450	698.46
45.297	45.382	2489.02
45.370	45.459	1396.91
45.507	45.701	622.25
45.532	45.594	1244.51
45.647	45.791	587.33
45.705	45.758	2349.32
45.753	45.952	523.25
45.887	45.943	466.16
45.916	46.053	493.88
46.003	46.290	261.63
46.006	46.247	392.00
46.010	46.219	622.25
46.395	46.559	698.46
46.494	46.553	1396.91
46.505	46.994	622.25
46.541	46.609	1244.51
46.744	47.032	349.23
46.768	46.972	440.00
46.787	46.848	1244.51
46.789	46.964	220.00
46.793	46.847	1046.50
47.008	47.172	587.33
47.021	47.153	1174.66
47.054	47.114	2959.96
47.135	47.285	523.25
47.258	47.414	466.16
47.279	47.388	1864.66
47.404	47.664	440.00
47.502	47.695	392.00
47.505	47.850	233.08
47.517	47.572	466.16
47.621	47.906	349.23
47.750	48.042	392.00
47.758	48.321	311.13
47.766	47.921	196.00
47.783	47.887	987.77
47.785	47.884	622.25
47.870	48.127	293.66
47.944	48.033	196.00
48.024	48.261	783.99
48.033	48.429	466.16
48.053	48.126	2349.32
48.058	48.124	1244.51
48.237	48.547	293.66
48.279	48.456	698.46
48.285	48.403	1174.66
48.287	48.391	1864.66
48.377	48.453	1396.91
48.506	48.801	311.13
48.518	48.592	1244.51
48.632	48.858	523.25
48.632	48.698	622.25
48.759	48.957	587.33
48.773	48.901	1174.66
48.785	49.021	349.23
49.003	49.188	523.25
49.005	49.238	392.00
49.156	49.350	466.16
49.258	49.426	622.25
49.411	49.610	311.13
49.489	49.541	622.25
49.495	49.791	349.23
49.524	49.688	587.33
49.528	49.589	1174.66
49.585	49.636	2349.32
49.749	50.067	311.13
49.791	49.889	622.25
50.010	50.194	783.99
50.140	50.295	622.25
50.157	50.237	1244.51
50.243	50.548	293.66
50.259	50.427	466.16
50.268	50.455	698.46
50.281	50.401	1174.66
50.289	50.384	1864.66
50.375	50.452	1396.91
50.506	50.735	392.00
50.507	50.795	261.63
50.515	50.674	466.16
50.538	50.634	1864.66
50.566	50.694	659.26
50.886	51.161	698.46
51.028	51.205	659.26
51.251	51.588	233.08
51.251	51.483	392.00
51.255	51.511	523.25
51.263	51.378	466.16
51.325	51.391	659.26
51.342	51.402	1318.51
51.397	51.607	783.99
51.412	51.468	3135.96
51.419	51.519	2349.32
51.533	51.673	698.46
51.612	51.689	1396.91
51.634	51.782	659.26
51.654	51.754	1975.53
51.768	51.923	587.33
51.833	51.888	2349.32
51.879	52.195	523.25
51.995	52.303	349.23
52.019	52.221	440.00
52.023	52.119	1396.91
52.041	52.210	220.00
52.046	52.099	1567.98
52.056	52.312	698.46
52.072	52.140	2793.83
52.394	52.549	587.33
52.508	52.770	622.25
52.782	53.006	349.23
52.879	53.046	1046.50
53.014	53.240	932.33
53.022	53.140	2793.83
53.139	53.321	880.00
53.260	53.447	783.99
53.398	53.679	698.46
53.515	53.678	622.25
53.627	53.793	587.33
53.649	53.762	1174.66
53.741	54.086	440.00
53.760	53.954	783.99
53.781	53.914	1318.51
53.785	54.049	311.13
53.995	54.467	293.66
54.018	54.282	698.46
54.043	54.245	466.16
54.249	54.310	233.08
54.296	54.366	1174.66
54.320	54.536	311.13
54.344	54.440	622.25
54.404	54.606	349.23
54.516	54.666	587.33
54.520	54.650	1174.66
54.553	54.616	2959.96
54.653	54.932	466.16
54.756	55.081	311.13
54.761	54.920	523.25
54.797	54.882	622.25
54.992	55.298	293.66
55.005	55.146	466.16
55.009	55.345	233.08
55.066	55.130	1864.66
55.361	55.650	293.66
55.414	55.514	1174.66
55.494	55.774	349.23
55.789	55.981	311.13
55.871	56.189	293.66
55.926	55.997	1174.66
56.014	56.184	261.63
56.079	56.135	783.99
56.126	56.404	233.08
56.248	56.349	293.66
56.272	56.789	932.33
56.281	56.441	587.33
56.320	56.385	2349.32
56.365	56.421	466.16
56.502	56.707	587.33
56.520	56.645	2793.83
56.527	56.642	1174.66
56.538	56.777	349.23
56.756	57.188	523.25
56.783	56.903	880.00
56.864	57.237	440.00
56.946	57.030	1318.51
57.254	57.415	466.16
57.278	57.390	1864.66
57.397	57.592	440.00
57.501	57.704	392.00
57.543	57.644	1975.53
57.659	57.850	349.23
57.757	58.236	622.25
57.779	57.985	880.00
58.005	58.307	233.08
58.008	58.085	440.00
58.042	58.273	349.23
58.046	58.119	1174.66
58.052	58.228	880.00
58.256	58.461	587.33
58.270	58.394	2793.83
58.270	58.517	932.33
58.285	58.403	1174.66